<?xml version="1.0"?>
<!DOCTYPE svg PUBLIC '-//W3C//DTD SVG 1.0//EN'
          'http://www.w3.org/TR/2001/REC-SVG-20010904/DTD/svg10.dtd'>
<svg xmlns:xlink="http://www.w3.org/1999/xlink" style="fill-opacity:1; color-rendering:auto; color-interpolation:auto; text-rendering:auto; stroke:black; stroke-linecap:square; stroke-miterlimit:10; shape-rendering:auto; stroke-opacity:1; fill:black; stroke-dasharray:none; font-weight:normal; stroke-width:1; font-family:'Dialog'; font-style:normal; stroke-linejoin:miter; font-size:12px; stroke-dashoffset:0; image-rendering:auto;" width="570" height="420" xmlns="http://www.w3.org/2000/svg"
><!--Generated by the Batik Graphics2D SVG Generator--><defs id="genericDefs"
  /><g
  ><defs id="defs1"
    ><clipPath clipPathUnits="userSpaceOnUse" id="clipPath1"
      ><path d="M0 0 L570 0 L570 420 L0 420 L0 0 Z"
      /></clipPath
    ></defs
    ><g style="fill:white; stroke:white;"
    ><rect x="0" y="0" width="570" style="clip-path:url(#clipPath1); stroke:none;" height="420"
    /></g
    ><g style="fill:white; text-rendering:optimizeSpeed; color-rendering:optimizeSpeed; image-rendering:optimizeSpeed; shape-rendering:crispEdges; stroke:white; color-interpolation:sRGB;"
    ><rect x="0" width="570" height="420" y="0" style="stroke:none;"
      /><path style="stroke:none;" d="M74 372 L516 372 L516 31 L74 31 Z"
    /></g
    ><g style="stroke-linecap:butt; fill-opacity:0.149; fill:rgb(38,38,38); text-rendering:geometricPrecision; image-rendering:optimizeQuality; color-rendering:optimizeQuality; stroke-linejoin:round; stroke:rgb(38,38,38); color-interpolation:linearRGB; stroke-width:0.6667; stroke-opacity:0.149;"
    ><line y2="31" style="fill:none;" x1="74" x2="74" y1="372"
      /><line y2="31" style="fill:none;" x1="147.6667" x2="147.6667" y1="372"
      /><line y2="31" style="fill:none;" x1="221.3333" x2="221.3333" y1="372"
      /><line y2="31" style="fill:none;" x1="295" x2="295" y1="372"
      /><line y2="31" style="fill:none;" x1="368.6667" x2="368.6667" y1="372"
      /><line y2="31" style="fill:none;" x1="442.3333" x2="442.3333" y1="372"
      /><line y2="31" style="fill:none;" x1="516" x2="516" y1="372"
      /><line y2="372" style="fill:none;" x1="516" x2="74" y1="372"
      /><line y2="315.1667" style="fill:none;" x1="516" x2="74" y1="315.1667"
      /><line y2="258.3333" style="fill:none;" x1="516" x2="74" y1="258.3333"
      /><line y2="201.5" style="fill:none;" x1="516" x2="74" y1="201.5"
      /><line y2="144.6667" style="fill:none;" x1="516" x2="74" y1="144.6667"
      /><line y2="87.8333" style="fill:none;" x1="516" x2="74" y1="87.8333"
      /><line y2="31" style="fill:none;" x1="516" x2="74" y1="31"
      /><line x1="74" x2="516" y1="372" style="stroke-linecap:square; fill-opacity:1; fill:none; stroke-opacity:1;" y2="372"
      /><line x1="74" x2="516" y1="31" style="stroke-linecap:square; fill-opacity:1; fill:none; stroke-opacity:1;" y2="31"
      /><line x1="74" x2="74" y1="372" style="stroke-linecap:square; fill-opacity:1; fill:none; stroke-opacity:1;" y2="367.58"
      /><line x1="147.6667" x2="147.6667" y1="372" style="stroke-linecap:square; fill-opacity:1; fill:none; stroke-opacity:1;" y2="367.58"
      /><line x1="221.3333" x2="221.3333" y1="372" style="stroke-linecap:square; fill-opacity:1; fill:none; stroke-opacity:1;" y2="367.58"
      /><line x1="295" x2="295" y1="372" style="stroke-linecap:square; fill-opacity:1; fill:none; stroke-opacity:1;" y2="367.58"
      /><line x1="368.6667" x2="368.6667" y1="372" style="stroke-linecap:square; fill-opacity:1; fill:none; stroke-opacity:1;" y2="367.58"
      /><line x1="442.3333" x2="442.3333" y1="372" style="stroke-linecap:square; fill-opacity:1; fill:none; stroke-opacity:1;" y2="367.58"
      /><line x1="516" x2="516" y1="372" style="stroke-linecap:square; fill-opacity:1; fill:none; stroke-opacity:1;" y2="367.58"
      /><line x1="74" x2="74" y1="31" style="stroke-linecap:square; fill-opacity:1; fill:none; stroke-opacity:1;" y2="35.42"
      /><line x1="147.6667" x2="147.6667" y1="31" style="stroke-linecap:square; fill-opacity:1; fill:none; stroke-opacity:1;" y2="35.42"
      /><line x1="221.3333" x2="221.3333" y1="31" style="stroke-linecap:square; fill-opacity:1; fill:none; stroke-opacity:1;" y2="35.42"
      /><line x1="295" x2="295" y1="31" style="stroke-linecap:square; fill-opacity:1; fill:none; stroke-opacity:1;" y2="35.42"
      /><line x1="368.6667" x2="368.6667" y1="31" style="stroke-linecap:square; fill-opacity:1; fill:none; stroke-opacity:1;" y2="35.42"
      /><line x1="442.3333" x2="442.3333" y1="31" style="stroke-linecap:square; fill-opacity:1; fill:none; stroke-opacity:1;" y2="35.42"
      /><line x1="516" x2="516" y1="31" style="stroke-linecap:square; fill-opacity:1; fill:none; stroke-opacity:1;" y2="35.42"
    /></g
    ><g transform="translate(74,377.8667)" style="font-size:16px; fill:rgb(38,38,38); text-rendering:geometricPrecision; image-rendering:optimizeQuality; color-rendering:optimizeQuality; font-family:'mwa_cmr10'; stroke:rgb(38,38,38); color-interpolation:linearRGB;"
    ><path style="stroke:none;" d="M-10.4792 10.4712 L-10.4792 9.4868 L-6.2448 9.4868 L-6.2448 10.4712 L-10.4792 10.4712 Z"
      /><path style="stroke:none;" d="M-4.8802 10.7993 L-4.8802 10.2368 L0.0573 2.8618 Q0.1198 2.7837 0.2291 2.7837 L0.4635 2.7837 Q0.6354 2.7837 0.6354 2.9556 L0.6354 10.2368 L2.2135 10.2368 L2.2135 10.7993 L0.6354 10.7993 L0.6354 12.3618 Q0.6354 12.6899 1.1041 12.7837 Q1.5729 12.8774 2.1979 12.8774 L2.1979 13.4399 L-2.2084 13.4399 L-2.2084 12.8774 Q-1.599 12.8774 -1.1302 12.7837 Q-0.6615 12.6899 -0.6615 12.3618 L-0.6615 10.7993 L-4.8802 10.7993 ZM-4.349 10.2368 L-0.5677 10.2368 L-0.5677 4.5649 L-4.349 10.2368 Z"
      /><path style="stroke:none;" d="M6.6667 13.7993 Q4.7136 13.7993 4.0026 12.1821 Q3.2917 10.5649 3.2917 8.3306 Q3.2917 6.9399 3.5495 5.7134 Q3.8073 4.4868 4.5573 3.6353 Q5.3073 2.7837 6.6667 2.7837 Q7.7292 2.7837 8.4011 3.2993 Q9.0729 3.8149 9.4245 4.6274 Q9.7761 5.4399 9.9011 6.3774 Q10.0261 7.3149 10.0261 8.3306 Q10.0261 9.7056 9.7761 10.9087 Q9.5261 12.1118 8.7839 12.9556 Q8.0417 13.7993 6.6667 13.7993 ZM6.6667 13.3774 Q7.5573 13.3774 7.9948 12.4634 Q8.4323 11.5493 8.5339 10.4399 Q8.6354 9.3306 8.6354 8.0806 Q8.6354 6.8774 8.5339 5.8618 Q8.4323 4.8462 8.0026 4.0181 Q7.5729 3.1899 6.6667 3.1899 Q5.7604 3.1899 5.3229 4.0181 Q4.8854 4.8462 4.7839 5.8618 Q4.6823 6.8774 4.6823 8.0806 Q4.6823 8.9712 4.7292 9.7603 Q4.7761 10.5493 4.9636 11.3853 Q5.1511 12.2212 5.5651 12.7993 Q5.9792 13.3774 6.6667 13.3774 Z"
    /></g
    ><g transform="translate(147.6667,377.8667)" style="font-size:16px; fill:rgb(38,38,38); text-rendering:geometricPrecision; image-rendering:optimizeQuality; color-rendering:optimizeQuality; font-family:'mwa_cmr10'; stroke:rgb(38,38,38); color-interpolation:linearRGB;"
    ><path style="stroke:none;" d="M-10.4792 10.4712 L-10.4792 9.4868 L-6.2448 9.4868 L-6.2448 10.4712 L-10.4792 10.4712 Z"
      /><path style="stroke:none;" d="M-3.8021 12.2056 Q-3.4271 12.7524 -2.7943 13.0181 Q-2.1615 13.2837 -1.4427 13.2837 Q-0.5052 13.2837 -0.1146 12.4868 Q0.276 11.6899 0.276 10.6899 Q0.276 10.2368 0.1901 9.7837 Q0.1041 9.3306 -0.0912 8.9399 Q-0.2865 8.5493 -0.6224 8.3149 Q-0.9584 8.0806 -1.4584 8.0806 L-2.5209 8.0806 Q-2.6615 8.0806 -2.6615 7.9243 L-2.6615 7.7837 Q-2.6615 7.6587 -2.5209 7.6587 L-1.6302 7.5962 Q-1.0677 7.5962 -0.7005 7.1743 Q-0.3334 6.7524 -0.1615 6.1431 Q0.0104 5.5337 0.0104 4.9868 Q0.0104 4.2212 -0.349 3.729 Q-0.7084 3.2368 -1.4427 3.2368 Q-2.0521 3.2368 -2.6068 3.4712 Q-3.1615 3.7056 -3.4896 4.1743 Q-3.4584 4.1587 -3.4349 4.1587 Q-3.4115 4.1587 -3.3802 4.1587 Q-3.0209 4.1587 -2.7787 4.4087 Q-2.5365 4.6587 -2.5365 5.0024 Q-2.5365 5.3462 -2.7787 5.5962 Q-3.0209 5.8462 -3.3802 5.8462 Q-3.724 5.8462 -3.974 5.5962 Q-4.224 5.3462 -4.224 5.0024 Q-4.224 4.3149 -3.8099 3.8071 Q-3.3959 3.2993 -2.7474 3.0415 Q-2.099 2.7837 -1.4427 2.7837 Q-0.9584 2.7837 -0.4193 2.9243 Q0.1198 3.0649 0.5573 3.3384 Q0.9948 3.6118 1.276 4.0337 Q1.5573 4.4556 1.5573 4.9868 Q1.5573 5.6587 1.2526 6.229 Q0.9479 6.7993 0.4245 7.2134 Q-0.099 7.6274 -0.724 7.8306 Q-0.0209 7.9712 0.6041 8.3618 Q1.2291 8.7524 1.6041 9.3618 Q1.9791 9.9712 1.9791 10.6743 Q1.9791 11.5493 1.4948 12.2681 Q1.0104 12.9868 0.2213 13.3931 Q-0.5677 13.7993 -1.4427 13.7993 Q-2.1927 13.7993 -2.9427 13.5103 Q-3.6927 13.2212 -4.1771 12.6509 Q-4.6615 12.0806 -4.6615 11.2837 Q-4.6615 10.8774 -4.3959 10.6118 Q-4.1302 10.3462 -3.724 10.3462 Q-3.474 10.3462 -3.2552 10.4712 Q-3.0365 10.5962 -2.9193 10.8149 Q-2.8021 11.0337 -2.8021 11.2837 Q-2.8021 11.6743 -3.0755 11.9399 Q-3.349 12.2056 -3.724 12.2056 L-3.8021 12.2056 Z"
      /><path style="stroke:none;" d="M6.6667 13.7993 Q4.7136 13.7993 4.0026 12.1821 Q3.2917 10.5649 3.2917 8.3306 Q3.2917 6.9399 3.5495 5.7134 Q3.8073 4.4868 4.5573 3.6353 Q5.3073 2.7837 6.6667 2.7837 Q7.7292 2.7837 8.4011 3.2993 Q9.0729 3.8149 9.4245 4.6274 Q9.7761 5.4399 9.9011 6.3774 Q10.0261 7.3149 10.0261 8.3306 Q10.0261 9.7056 9.7761 10.9087 Q9.5261 12.1118 8.7839 12.9556 Q8.0417 13.7993 6.6667 13.7993 ZM6.6667 13.3774 Q7.5573 13.3774 7.9948 12.4634 Q8.4323 11.5493 8.5339 10.4399 Q8.6354 9.3306 8.6354 8.0806 Q8.6354 6.8774 8.5339 5.8618 Q8.4323 4.8462 8.0026 4.0181 Q7.5729 3.1899 6.6667 3.1899 Q5.7604 3.1899 5.3229 4.0181 Q4.8854 4.8462 4.7839 5.8618 Q4.6823 6.8774 4.6823 8.0806 Q4.6823 8.9712 4.7292 9.7603 Q4.7761 10.5493 4.9636 11.3853 Q5.1511 12.2212 5.5651 12.7993 Q5.9792 13.3774 6.6667 13.3774 Z"
    /></g
    ><g transform="translate(221.3333,377.8667)" style="font-size:16px; fill:rgb(38,38,38); text-rendering:geometricPrecision; image-rendering:optimizeQuality; color-rendering:optimizeQuality; font-family:'mwa_cmr10'; stroke:rgb(38,38,38); color-interpolation:linearRGB;"
    ><path style="stroke:none;" d="M-10.4792 10.4712 L-10.4792 9.4868 L-6.2448 9.4868 L-6.2448 10.4712 L-10.4792 10.4712 Z"
      /><path style="stroke:none;" d="M-4.5365 13.4399 L-4.5365 13.0024 Q-4.5365 12.9712 -4.5052 12.9243 L-2.0209 10.1743 Q-1.4584 9.5649 -1.1068 9.1509 Q-0.7552 8.7368 -0.4115 8.1978 Q-0.0677 7.6587 0.1354 7.0962 Q0.3385 6.5337 0.3385 5.9087 Q0.3385 5.2524 0.0963 4.6587 Q-0.1459 4.0649 -0.6302 3.7056 Q-1.1146 3.3462 -1.7865 3.3462 Q-2.4896 3.3462 -3.0443 3.7603 Q-3.599 4.1743 -3.8177 4.8462 Q-3.7552 4.8306 -3.6459 4.8306 Q-3.2865 4.8306 -3.0365 5.0728 Q-2.7865 5.3149 -2.7865 5.6899 Q-2.7865 6.0649 -3.0365 6.3149 Q-3.2865 6.5649 -3.6459 6.5649 Q-4.0209 6.5649 -4.2787 6.3071 Q-4.5365 6.0493 -4.5365 5.6899 Q-4.5365 5.0962 -4.3099 4.5649 Q-4.0834 4.0337 -3.6537 3.6274 Q-3.224 3.2212 -2.6927 3.0024 Q-2.1615 2.7837 -1.5521 2.7837 Q-0.6459 2.7837 0.1432 3.1665 Q0.9323 3.5493 1.3932 4.2603 Q1.8541 4.9712 1.8541 5.9087 Q1.8541 6.6118 1.5495 7.2368 Q1.2448 7.8618 0.7682 8.3696 Q0.2916 8.8774 -0.4505 9.5259 Q-1.1927 10.1743 -1.4271 10.3931 L-3.2396 12.1431 L-1.6927 12.1431 Q-0.5677 12.1431 0.1979 12.1196 Q0.9635 12.0962 1.0104 12.0649 Q1.1979 11.8618 1.3854 10.5806 L1.8541 10.5806 L1.401 13.4399 L-4.5365 13.4399 Z"
      /><path style="stroke:none;" d="M6.6667 13.7993 Q4.7136 13.7993 4.0026 12.1821 Q3.2917 10.5649 3.2917 8.3306 Q3.2917 6.9399 3.5495 5.7134 Q3.8073 4.4868 4.5573 3.6353 Q5.3073 2.7837 6.6667 2.7837 Q7.7292 2.7837 8.4011 3.2993 Q9.0729 3.8149 9.4245 4.6274 Q9.7761 5.4399 9.9011 6.3774 Q10.0261 7.3149 10.0261 8.3306 Q10.0261 9.7056 9.7761 10.9087 Q9.5261 12.1118 8.7839 12.9556 Q8.0417 13.7993 6.6667 13.7993 ZM6.6667 13.3774 Q7.5573 13.3774 7.9948 12.4634 Q8.4323 11.5493 8.5339 10.4399 Q8.6354 9.3306 8.6354 8.0806 Q8.6354 6.8774 8.5339 5.8618 Q8.4323 4.8462 8.0026 4.0181 Q7.5729 3.1899 6.6667 3.1899 Q5.7604 3.1899 5.3229 4.0181 Q4.8854 4.8462 4.7839 5.8618 Q4.6823 6.8774 4.6823 8.0806 Q4.6823 8.9712 4.7292 9.7603 Q4.7761 10.5493 4.9636 11.3853 Q5.1511 12.2212 5.5651 12.7993 Q5.9792 13.3774 6.6667 13.3774 Z"
    /></g
    ><g transform="translate(295,377.8667)" style="font-size:16px; fill:rgb(38,38,38); text-rendering:geometricPrecision; image-rendering:optimizeQuality; color-rendering:optimizeQuality; font-family:'mwa_cmr10'; stroke:rgb(38,38,38); color-interpolation:linearRGB;"
    ><path style="stroke:none;" d="M-10.4792 10.4712 L-10.4792 9.4868 L-6.2448 9.4868 L-6.2448 10.4712 L-10.4792 10.4712 Z"
      /><path style="stroke:none;" d="M-3.849 13.4399 L-3.849 12.8774 Q-1.849 12.8774 -1.849 12.3618 L-1.849 3.9712 Q-2.6771 4.3618 -3.9427 4.3618 L-3.9427 3.7993 Q-1.974 3.7993 -0.974 2.7837 L-0.7552 2.7837 Q-0.6927 2.7837 -0.6459 2.8228 Q-0.599 2.8618 -0.599 2.9243 L-0.599 12.3618 Q-0.599 12.8774 1.401 12.8774 L1.401 13.4399 L-3.849 13.4399 Z"
      /><path style="stroke:none;" d="M6.6667 13.7993 Q4.7136 13.7993 4.0026 12.1821 Q3.2917 10.5649 3.2917 8.3306 Q3.2917 6.9399 3.5495 5.7134 Q3.8073 4.4868 4.5573 3.6353 Q5.3073 2.7837 6.6667 2.7837 Q7.7292 2.7837 8.4011 3.2993 Q9.0729 3.8149 9.4245 4.6274 Q9.7761 5.4399 9.9011 6.3774 Q10.0261 7.3149 10.0261 8.3306 Q10.0261 9.7056 9.7761 10.9087 Q9.5261 12.1118 8.7839 12.9556 Q8.0417 13.7993 6.6667 13.7993 ZM6.6667 13.3774 Q7.5573 13.3774 7.9948 12.4634 Q8.4323 11.5493 8.5339 10.4399 Q8.6354 9.3306 8.6354 8.0806 Q8.6354 6.8774 8.5339 5.8618 Q8.4323 4.8462 8.0026 4.0181 Q7.5729 3.1899 6.6667 3.1899 Q5.7604 3.1899 5.3229 4.0181 Q4.8854 4.8462 4.7839 5.8618 Q4.6823 6.8774 4.6823 8.0806 Q4.6823 8.9712 4.7292 9.7603 Q4.7761 10.5493 4.9636 11.3853 Q5.1511 12.2212 5.5651 12.7993 Q5.9792 13.3774 6.6667 13.3774 Z"
    /></g
    ><g transform="translate(368.6667,377.8667)" style="font-size:16px; fill:rgb(38,38,38); text-rendering:geometricPrecision; image-rendering:optimizeQuality; color-rendering:optimizeQuality; font-family:'mwa_cmr10'; stroke:rgb(38,38,38); color-interpolation:linearRGB;"
    ><path style="stroke:none;" d="M-0 13.7993 Q-1.9531 13.7993 -2.6641 12.1821 Q-3.375 10.5649 -3.375 8.3306 Q-3.375 6.9399 -3.1172 5.7134 Q-2.8594 4.4868 -2.1094 3.6353 Q-1.3594 2.7837 -0 2.7837 Q1.0625 2.7837 1.7344 3.2993 Q2.4062 3.8149 2.7578 4.6274 Q3.1094 5.4399 3.2344 6.3774 Q3.3594 7.3149 3.3594 8.3306 Q3.3594 9.7056 3.1094 10.9087 Q2.8594 12.1118 2.1172 12.9556 Q1.375 13.7993 -0 13.7993 ZM-0 13.3774 Q0.8906 13.3774 1.3281 12.4634 Q1.7656 11.5493 1.8672 10.4399 Q1.9687 9.3306 1.9687 8.0806 Q1.9687 6.8774 1.8672 5.8618 Q1.7656 4.8462 1.3359 4.0181 Q0.9062 3.1899 -0 3.1899 Q-0.9063 3.1899 -1.3438 4.0181 Q-1.7813 4.8462 -1.8828 5.8618 Q-1.9844 6.8774 -1.9844 8.0806 Q-1.9844 8.9712 -1.9375 9.7603 Q-1.8906 10.5493 -1.7031 11.3853 Q-1.5156 12.2212 -1.1016 12.7993 Q-0.6875 13.3774 -0 13.3774 Z"
    /></g
    ><g transform="translate(442.3333,377.8667)" style="font-size:16px; fill:rgb(38,38,38); text-rendering:geometricPrecision; image-rendering:optimizeQuality; color-rendering:optimizeQuality; font-family:'mwa_cmr10'; stroke:rgb(38,38,38); color-interpolation:linearRGB;"
    ><path style="stroke:none;" d="M-6.5156 13.4399 L-6.5156 12.8774 Q-4.5156 12.8774 -4.5156 12.3618 L-4.5156 3.9712 Q-5.3438 4.3618 -6.6094 4.3618 L-6.6094 3.7993 Q-4.6406 3.7993 -3.6406 2.7837 L-3.4219 2.7837 Q-3.3594 2.7837 -3.3125 2.8228 Q-3.2656 2.8618 -3.2656 2.9243 L-3.2656 12.3618 Q-3.2656 12.8774 -1.2656 12.8774 L-1.2656 13.4399 L-6.5156 13.4399 Z"
      /><path style="stroke:none;" d="M4 13.7993 Q2.0469 13.7993 1.3359 12.1821 Q0.625 10.5649 0.625 8.3306 Q0.625 6.9399 0.8828 5.7134 Q1.1406 4.4868 1.8906 3.6353 Q2.6406 2.7837 4 2.7837 Q5.0625 2.7837 5.7344 3.2993 Q6.4062 3.8149 6.7578 4.6274 Q7.1094 5.4399 7.2344 6.3774 Q7.3594 7.3149 7.3594 8.3306 Q7.3594 9.7056 7.1094 10.9087 Q6.8594 12.1118 6.1172 12.9556 Q5.375 13.7993 4 13.7993 ZM4 13.3774 Q4.8906 13.3774 5.3281 12.4634 Q5.7656 11.5493 5.8672 10.4399 Q5.9688 9.3306 5.9688 8.0806 Q5.9688 6.8774 5.8672 5.8618 Q5.7656 4.8462 5.3359 4.0181 Q4.9062 3.1899 4 3.1899 Q3.0938 3.1899 2.6562 4.0181 Q2.2188 4.8462 2.1172 5.8618 Q2.0156 6.8774 2.0156 8.0806 Q2.0156 8.9712 2.0625 9.7603 Q2.1094 10.5493 2.2969 11.3853 Q2.4844 12.2212 2.8984 12.7993 Q3.3125 13.3774 4 13.3774 Z"
    /></g
    ><g transform="translate(516,377.8667)" style="font-size:16px; fill:rgb(38,38,38); text-rendering:geometricPrecision; image-rendering:optimizeQuality; color-rendering:optimizeQuality; font-family:'mwa_cmr10'; stroke:rgb(38,38,38); color-interpolation:linearRGB;"
    ><path style="stroke:none;" d="M-7.2031 13.4399 L-7.2031 13.0024 Q-7.2031 12.9712 -7.1719 12.9243 L-4.6875 10.1743 Q-4.125 9.5649 -3.7735 9.1509 Q-3.4219 8.7368 -3.0781 8.1978 Q-2.7344 7.6587 -2.5313 7.0962 Q-2.3281 6.5337 -2.3281 5.9087 Q-2.3281 5.2524 -2.5703 4.6587 Q-2.8125 4.0649 -3.2969 3.7056 Q-3.7813 3.3462 -4.4531 3.3462 Q-5.1563 3.3462 -5.711 3.7603 Q-6.2656 4.1743 -6.4844 4.8462 Q-6.4219 4.8306 -6.3125 4.8306 Q-5.9531 4.8306 -5.7031 5.0728 Q-5.4531 5.3149 -5.4531 5.6899 Q-5.4531 6.0649 -5.7031 6.3149 Q-5.9531 6.5649 -6.3125 6.5649 Q-6.6875 6.5649 -6.9453 6.3071 Q-7.2031 6.0493 -7.2031 5.6899 Q-7.2031 5.0962 -6.9766 4.5649 Q-6.75 4.0337 -6.3203 3.6274 Q-5.8906 3.2212 -5.3594 3.0024 Q-4.8281 2.7837 -4.2188 2.7837 Q-3.3125 2.7837 -2.5235 3.1665 Q-1.7344 3.5493 -1.2735 4.2603 Q-0.8125 4.9712 -0.8125 5.9087 Q-0.8125 6.6118 -1.1172 7.2368 Q-1.4219 7.8618 -1.8985 8.3696 Q-2.375 8.8774 -3.1172 9.5259 Q-3.8594 10.1743 -4.0938 10.3931 L-5.9063 12.1431 L-4.3594 12.1431 Q-3.2344 12.1431 -2.4688 12.1196 Q-1.7031 12.0962 -1.6563 12.0649 Q-1.4688 11.8618 -1.2813 10.5806 L-0.8125 10.5806 L-1.2656 13.4399 L-7.2031 13.4399 Z"
      /><path style="stroke:none;" d="M4 13.7993 Q2.0469 13.7993 1.3359 12.1821 Q0.625 10.5649 0.625 8.3306 Q0.625 6.9399 0.8828 5.7134 Q1.1406 4.4868 1.8906 3.6353 Q2.6406 2.7837 4 2.7837 Q5.0625 2.7837 5.7344 3.2993 Q6.4062 3.8149 6.7578 4.6274 Q7.1094 5.4399 7.2344 6.3774 Q7.3594 7.3149 7.3594 8.3306 Q7.3594 9.7056 7.1094 10.9087 Q6.8594 12.1118 6.1172 12.9556 Q5.375 13.7993 4 13.7993 ZM4 13.3774 Q4.8906 13.3774 5.3281 12.4634 Q5.7656 11.5493 5.8672 10.4399 Q5.9688 9.3306 5.9688 8.0806 Q5.9688 6.8774 5.8672 5.8618 Q5.7656 4.8462 5.3359 4.0181 Q4.9062 3.1899 4 3.1899 Q3.0938 3.1899 2.6562 4.0181 Q2.2188 4.8462 2.1172 5.8618 Q2.0156 6.8774 2.0156 8.0806 Q2.0156 8.9712 2.0625 9.7603 Q2.1094 10.5493 2.2969 11.3853 Q2.4844 12.2212 2.8984 12.7993 Q3.3125 13.3774 4 13.3774 Z"
    /></g
    ><g transform="translate(295.0002,398.88)" style="font-size:17.6px; fill:rgb(38,38,38); text-rendering:geometricPrecision; image-rendering:optimizeQuality; color-rendering:optimizeQuality; font-family:'mwa_cmr10'; stroke:rgb(38,38,38); color-interpolation:linearRGB;"
    ><path style="stroke:none;" d="M-37.8511 15.0339 L-37.8511 10.8308 Q-37.8511 10.6902 -37.6949 10.6902 L-37.4761 10.6902 Q-37.4292 10.6902 -37.3824 10.7371 Q-37.3355 10.7839 -37.3355 10.8308 Q-37.3355 12.5964 -36.2417 13.573 Q-35.148 14.5496 -33.3667 14.5496 Q-32.7417 14.5496 -32.2183 14.1902 Q-31.6949 13.8308 -31.398 13.2449 Q-31.1011 12.6589 -31.1011 12.0339 Q-31.1011 11.4871 -31.3199 10.9714 Q-31.5386 10.4558 -31.9527 10.0808 Q-32.3667 9.7058 -32.8824 9.5808 L-35.2261 9.0027 Q-36.3824 8.7058 -37.1167 7.7527 Q-37.8511 6.7996 -37.8511 5.6121 Q-37.8511 4.6746 -37.3824 3.8542 Q-36.9136 3.0339 -36.1089 2.5652 Q-35.3042 2.0964 -34.3667 2.0964 Q-32.5699 2.0964 -31.5074 3.3152 L-30.7574 2.1433 Q-30.7105 2.0964 -30.6324 2.0964 L-30.523 2.0964 Q-30.4605 2.0964 -30.4136 2.1355 Q-30.3667 2.1746 -30.3667 2.2371 L-30.3667 6.4089 Q-30.3667 6.5808 -30.523 6.5808 L-30.7261 6.5808 Q-30.898 6.5808 -30.898 6.4089 Q-30.898 5.9558 -31.0464 5.4089 Q-31.1949 4.8621 -31.4683 4.3621 Q-31.7417 3.8621 -32.0699 3.5496 Q-32.9292 2.6746 -34.3667 2.6746 Q-34.9761 2.6746 -35.4995 2.9871 Q-36.023 3.2996 -36.3277 3.8308 Q-36.6324 4.3621 -36.6324 4.9558 Q-36.6324 5.7371 -36.1558 6.3621 Q-35.6792 6.9871 -34.898 7.1902 L-32.5699 7.7683 Q-31.9917 7.9089 -31.4761 8.2683 Q-30.9605 8.6277 -30.6167 9.1121 Q-30.273 9.5964 -30.0777 10.1902 Q-29.8824 10.7839 -29.8824 11.4246 Q-29.8824 12.3933 -30.3277 13.2605 Q-30.773 14.1277 -31.5933 14.6511 Q-32.4136 15.1746 -33.3667 15.1746 Q-33.9761 15.1746 -34.6011 15.0417 Q-35.2261 14.9089 -35.7495 14.6433 Q-36.273 14.3777 -36.7105 13.9402 L-37.4605 15.1277 Q-37.5074 15.1746 -37.5855 15.1746 L-37.6949 15.1746 Q-37.8511 15.1746 -37.8511 15.0339 Z"
      /><path style="stroke:none;" d="M-28.5421 14.7839 L-28.5421 14.1433 Q-26.6827 14.1433 -26.6827 13.0808 L-26.6827 3.2214 Q-27.2764 3.1277 -28.5421 3.1277 L-28.5421 2.4871 L-25.0889 2.4871 Q-24.9952 2.4871 -24.9639 2.5652 L-18.5889 11.9402 L-18.5889 4.1902 Q-18.5889 3.1277 -20.4483 3.1277 L-20.4483 2.4871 L-16.1671 2.4871 L-16.1671 3.1277 Q-18.0108 3.1277 -18.0108 4.1902 L-18.0108 14.6277 Q-18.0108 14.6746 -18.0811 14.7292 Q-18.1514 14.7839 -18.1983 14.7839 L-18.4171 14.7839 Q-18.5108 14.7839 -18.5421 14.7058 L-26.1046 3.5808 L-26.1046 13.0808 Q-26.1046 14.1433 -24.2452 14.1433 L-24.2452 14.7839 L-28.5421 14.7839 Z"
      /><path style="stroke:none;" d="M-15.2952 14.7839 L-15.2952 14.1433 Q-13.4358 14.1433 -13.4358 13.5808 L-13.4358 3.6902 Q-13.4358 3.1277 -15.2952 3.1277 L-15.2952 2.4871 L-9.6389 2.4871 Q-8.6233 2.4871 -7.5139 2.8542 Q-6.4045 3.2214 -5.6545 3.9636 Q-4.9045 4.7058 -4.9045 5.7527 Q-4.9045 6.5027 -5.3577 7.0964 Q-5.8108 7.6902 -6.5217 8.0886 Q-7.2327 8.4871 -7.967 8.6589 Q-7.1545 8.9402 -6.553 9.5574 Q-5.9514 10.1746 -5.8264 10.9714 L-5.5764 12.5652 Q-5.3889 13.6433 -5.2014 14.1746 Q-5.0139 14.7058 -4.342 14.7058 Q-3.7795 14.7058 -3.5061 14.1902 Q-3.2327 13.6746 -3.2327 13.0496 Q-3.2327 12.9871 -3.178 12.9402 Q-3.1233 12.8933 -3.0608 12.8933 L-2.8889 12.8933 Q-2.717 12.8933 -2.717 13.1277 Q-2.717 13.6277 -2.9123 14.0964 Q-3.1077 14.5652 -3.467 14.8699 Q-3.8264 15.1746 -4.3264 15.1746 Q-5.6389 15.1746 -6.5686 14.5339 Q-7.4983 13.8933 -7.4983 12.6433 L-7.4983 11.0339 Q-7.4983 10.1433 -8.1233 9.5027 Q-8.7483 8.8621 -9.6545 8.8621 L-11.8264 8.8621 L-11.8264 13.5808 Q-11.8264 14.1433 -9.967 14.1433 L-9.967 14.7839 L-15.2952 14.7839 ZM-11.8264 8.3933 L-9.8889 8.3933 Q-8.4045 8.3933 -7.6233 7.7917 Q-6.842 7.1902 -6.842 5.7527 Q-6.842 4.3152 -7.6155 3.7214 Q-8.3889 3.1277 -9.8889 3.1277 L-10.9045 3.1277 Q-11.2327 3.1277 -11.4123 3.1511 Q-11.592 3.1746 -11.7092 3.2996 Q-11.8264 3.4246 -11.8264 3.6902 L-11.8264 8.3933 Z"
      /><path style="stroke:none;" d="M8.5114 19.2527 Q7.5114 18.4558 6.7849 17.4324 Q6.0583 16.4089 5.5974 15.2527 Q5.1364 14.0964 4.9099 12.8308 Q4.6833 11.5652 4.6833 10.2839 Q4.6833 8.9871 4.9099 7.7214 Q5.1364 6.4558 5.6052 5.2917 Q6.0739 4.1277 6.8083 3.1042 Q7.5427 2.0808 8.5114 1.3152 Q8.5114 1.2839 8.6052 1.2839 L8.7771 1.2839 Q8.8239 1.2839 8.8708 1.3308 Q8.9177 1.3777 8.9177 1.4402 Q8.9177 1.5183 8.8708 1.5496 Q7.9958 2.4246 7.4099 3.4089 Q6.8239 4.3933 6.4724 5.5027 Q6.1208 6.6121 5.9568 7.7996 Q5.7927 8.9871 5.7927 10.2839 Q5.7927 16.0027 8.8552 18.9714 Q8.9177 19.0339 8.9177 19.1277 Q8.9177 19.1746 8.863 19.2292 Q8.8083 19.2839 8.7771 19.2839 L8.6052 19.2839 Q8.5114 19.2839 8.5114 19.2527 Z"
      /><path style="stroke:none;" d="M14.1684 14.9871 Q13.1059 14.9871 12.2309 14.4089 Q11.3559 13.8308 10.8637 12.8933 Q10.3715 11.9558 10.3715 10.8933 Q10.3715 9.8152 10.9028 8.8777 Q11.434 7.9402 12.3481 7.3855 Q13.2622 6.8308 14.3715 6.8308 Q15.0278 6.8308 15.6137 7.1042 Q16.1997 7.3777 16.6372 7.8777 L16.6372 4.1277 Q16.6372 3.6433 16.4887 3.4324 Q16.3403 3.2214 16.0747 3.1746 Q15.809 3.1277 15.2309 3.1277 L15.2309 2.4871 L17.9028 2.2996 L17.9028 13.1433 Q17.9028 13.6277 18.0434 13.8386 Q18.184 14.0496 18.4575 14.0964 Q18.7309 14.1433 19.2934 14.1433 L19.2934 14.7839 L16.5747 14.9871 L16.5747 13.8464 Q16.1215 14.3933 15.4731 14.6902 Q14.8247 14.9871 14.1684 14.9871 ZM12.3403 13.2214 Q12.6372 13.8152 13.1528 14.1667 Q13.6684 14.5183 14.2778 14.5183 Q15.0278 14.5183 15.6528 14.0808 Q16.2778 13.6433 16.5747 12.9714 L16.5747 8.6433 Q16.3715 8.2527 16.0512 7.9402 Q15.7309 7.6277 15.3325 7.4636 Q14.934 7.2996 14.4809 7.2996 Q13.5434 7.2996 12.9731 7.8308 Q12.4028 8.3621 12.1684 9.1902 Q11.934 10.0183 11.934 10.9089 Q11.934 11.6433 12.0122 12.1746 Q12.0903 12.7058 12.3403 13.2214 Z"
      /><path style="stroke:none;" d="M20.165 14.7839 L20.165 14.1433 Q22.0243 14.1433 22.0243 13.5808 L22.0243 3.6902 Q22.0243 3.1277 20.165 3.1277 L20.165 2.4871 L26.79 2.4871 Q27.6962 2.4871 28.6337 2.8464 Q29.5712 3.2058 30.1806 3.9011 Q30.79 4.5964 30.79 5.5496 Q30.79 6.6433 29.8915 7.3855 Q28.9931 8.1277 27.79 8.3621 Q28.5712 8.3621 29.3915 8.7917 Q30.2118 9.2214 30.7431 9.9402 Q31.2743 10.6589 31.2743 11.4714 Q31.2743 12.4558 30.6884 13.2136 Q30.1025 13.9714 29.1728 14.3777 Q28.2431 14.7839 27.3056 14.7839 L20.165 14.7839 ZM23.5868 13.5808 Q23.5868 13.9714 23.8056 14.0574 Q24.0243 14.1433 24.5087 14.1433 L26.79 14.1433 Q27.4931 14.1433 28.0947 13.7761 Q28.6962 13.4089 29.0478 12.7917 Q29.3993 12.1746 29.3993 11.4714 Q29.3993 10.7839 29.1103 10.1277 Q28.8212 9.4714 28.2822 9.0496 Q27.7431 8.6277 27.04 8.6277 L23.5868 8.6277 L23.5868 13.5808 ZM23.5868 8.1589 L26.29 8.1589 Q26.8368 8.1589 27.3134 7.9636 Q27.79 7.7683 28.1728 7.3933 Q28.5556 7.0183 28.7587 6.5496 Q28.9618 6.0808 28.9618 5.5496 Q28.9618 5.0808 28.8134 4.6511 Q28.665 4.2214 28.3681 3.8699 Q28.0712 3.5183 27.665 3.323 Q27.2587 3.1277 26.79 3.1277 L24.5087 3.1277 Q24.1806 3.1277 24.0009 3.1511 Q23.8212 3.1746 23.704 3.2996 Q23.5868 3.4246 23.5868 3.6902 L23.5868 8.1589 Z"
      /><path style="stroke:none;" d="M33.1942 19.2839 Q33.0379 19.2839 33.0379 19.1277 Q33.0379 19.0496 33.0692 19.0183 Q36.1473 16.0027 36.1473 10.2839 Q36.1473 4.5652 33.1004 1.5964 Q33.0379 1.5496 33.0379 1.4402 Q33.0379 1.3777 33.0848 1.3308 Q33.1317 1.2839 33.1942 1.2839 L33.3661 1.2839 Q33.4129 1.2839 33.4442 1.3152 Q34.7411 2.3308 35.6004 3.7917 Q36.4598 5.2527 36.8582 6.9089 Q37.2567 8.5652 37.2567 10.2839 Q37.2567 11.5652 37.0457 12.7996 Q36.8348 14.0339 36.3661 15.2292 Q35.8973 16.4246 35.1707 17.4402 Q34.4442 18.4558 33.4442 19.2527 Q33.4129 19.2839 33.3661 19.2839 L33.1942 19.2839 Z"
    /></g
    ><g style="fill:rgb(38,38,38); text-rendering:geometricPrecision; image-rendering:optimizeQuality; color-rendering:optimizeQuality; stroke-linejoin:round; stroke:rgb(38,38,38); color-interpolation:linearRGB; stroke-width:0.6667;"
    ><line y2="31" style="fill:none;" x1="74" x2="74" y1="372"
      /><line y2="31" style="fill:none;" x1="516" x2="516" y1="372"
      /><line y2="372" style="fill:none;" x1="74" x2="78.42" y1="372"
      /><line y2="315.1667" style="fill:none;" x1="74" x2="78.42" y1="315.1667"
      /><line y2="258.3333" style="fill:none;" x1="74" x2="78.42" y1="258.3333"
      /><line y2="201.5" style="fill:none;" x1="74" x2="78.42" y1="201.5"
      /><line y2="144.6667" style="fill:none;" x1="74" x2="78.42" y1="144.6667"
      /><line y2="87.8333" style="fill:none;" x1="74" x2="78.42" y1="87.8333"
      /><line y2="31" style="fill:none;" x1="74" x2="78.42" y1="31"
      /><line y2="372" style="fill:none;" x1="516" x2="511.58" y1="372"
      /><line y2="315.1667" style="fill:none;" x1="516" x2="511.58" y1="315.1667"
      /><line y2="258.3333" style="fill:none;" x1="516" x2="511.58" y1="258.3333"
      /><line y2="201.5" style="fill:none;" x1="516" x2="511.58" y1="201.5"
      /><line y2="144.6667" style="fill:none;" x1="516" x2="511.58" y1="144.6667"
      /><line y2="87.8333" style="fill:none;" x1="516" x2="511.58" y1="87.8333"
      /><line y2="31" style="fill:none;" x1="516" x2="511.58" y1="31"
    /></g
    ><g transform="translate(68.1333,372)" style="font-size:16px; fill:rgb(38,38,38); text-rendering:geometricPrecision; image-rendering:optimizeQuality; color-rendering:optimizeQuality; font-family:'mwa_cmr10'; stroke:rgb(38,38,38); color-interpolation:linearRGB;"
    ><path style="stroke:none;" d="M-4 4.1993 Q-5.9531 4.1993 -6.6641 2.5821 Q-7.375 0.9649 -7.375 -1.2694 Q-7.375 -2.6601 -7.1172 -3.8866 Q-6.8594 -5.1132 -6.1094 -5.9647 Q-5.3594 -6.8163 -4 -6.8163 Q-2.9375 -6.8163 -2.2656 -6.3007 Q-1.5938 -5.7851 -1.2422 -4.9726 Q-0.8906 -4.1601 -0.7656 -3.2226 Q-0.6406 -2.2851 -0.6406 -1.2694 Q-0.6406 0.1056 -0.8906 1.3087 Q-1.1406 2.5118 -1.8828 3.3556 Q-2.625 4.1993 -4 4.1993 ZM-4 3.7774 Q-3.1094 3.7774 -2.6719 2.8634 Q-2.2344 1.9493 -2.1328 0.8399 Q-2.0313 -0.2694 -2.0313 -1.5194 Q-2.0313 -2.7226 -2.1328 -3.7382 Q-2.2344 -4.7538 -2.6641 -5.5819 Q-3.0938 -6.4101 -4 -6.4101 Q-4.9063 -6.4101 -5.3438 -5.5819 Q-5.7813 -4.7538 -5.8828 -3.7382 Q-5.9844 -2.7226 -5.9844 -1.5194 Q-5.9844 -0.6288 -5.9375 0.1603 Q-5.8906 0.9493 -5.7031 1.7853 Q-5.5156 2.6212 -5.1016 3.1993 Q-4.6875 3.7774 -4 3.7774 Z"
    /></g
    ><g transform="translate(68.1333,315.1667)" style="font-size:16px; fill:rgb(38,38,38); text-rendering:geometricPrecision; image-rendering:optimizeQuality; color-rendering:optimizeQuality; font-family:'mwa_cmr10'; stroke:rgb(38,38,38); color-interpolation:linearRGB;"
    ><path style="stroke:none;" d="M-6.6094 2.0118 Q-6.4375 2.4806 -6.1016 2.8634 Q-5.7656 3.2462 -5.2969 3.4649 Q-4.8281 3.6837 -4.3281 3.6837 Q-3.1719 3.6837 -2.7344 2.7853 Q-2.2969 1.8868 -2.2969 0.6056 Q-2.2969 0.0431 -2.3203 -0.3319 Q-2.3438 -0.7069 -2.4219 -1.0663 Q-2.5781 -1.6288 -2.9453 -2.0507 Q-3.3125 -2.4726 -3.8594 -2.4726 Q-4.3906 -2.4726 -4.7813 -2.3085 Q-5.1719 -2.1444 -5.4141 -1.9257 Q-5.6563 -1.7069 -5.8438 -1.4647 Q-6.0313 -1.2226 -6.0781 -1.2069 L-6.25 -1.2069 Q-6.2969 -1.2069 -6.3516 -1.2538 Q-6.4063 -1.3007 -6.4063 -1.3476 L-6.4063 -6.6913 Q-6.4063 -6.7382 -6.3594 -6.7772 Q-6.3125 -6.8163 -6.25 -6.8163 L-6.2031 -6.8163 Q-5.125 -6.3007 -3.9219 -6.3007 Q-2.7344 -6.3007 -1.625 -6.8163 L-1.5781 -6.8163 Q-1.5313 -6.8163 -1.4844 -6.7772 Q-1.4375 -6.7382 -1.4375 -6.6913 L-1.4375 -6.5507 Q-1.4375 -6.4726 -1.4688 -6.4726 Q-2.0156 -5.7382 -2.836 -5.3319 Q-3.6563 -4.9257 -4.5469 -4.9257 Q-5.1875 -4.9257 -5.8594 -5.1132 L-5.8594 -2.0819 Q-5.3281 -2.5194 -4.9063 -2.6991 Q-4.4844 -2.8788 -3.8438 -2.8788 Q-2.9531 -2.8788 -2.2578 -2.371 Q-1.5625 -1.8632 -1.1875 -1.0507 Q-0.8125 -0.2382 -0.8125 0.6212 Q-0.8125 1.5743 -1.2813 2.3946 Q-1.75 3.2149 -2.5625 3.7071 Q-3.375 4.1993 -4.3281 4.1993 Q-5.125 4.1993 -5.7813 3.7853 Q-6.4375 3.3712 -6.8203 2.6837 Q-7.2031 1.9962 -7.2031 1.2306 Q-7.2031 0.8712 -6.9688 0.6446 Q-6.7344 0.4181 -6.375 0.4181 Q-6.0313 0.4181 -5.7891 0.6446 Q-5.5469 0.8712 -5.5469 1.2306 Q-5.5469 1.5743 -5.7891 1.8087 Q-6.0313 2.0431 -6.375 2.0431 Q-6.4375 2.0431 -6.5078 2.0353 Q-6.5781 2.0274 -6.6094 2.0118 Z"
    /></g
    ><g transform="translate(68.1333,258.3333)" style="font-size:16px; fill:rgb(38,38,38); text-rendering:geometricPrecision; image-rendering:optimizeQuality; color-rendering:optimizeQuality; font-family:'mwa_cmr10'; stroke:rgb(38,38,38); color-interpolation:linearRGB;"
    ><path style="stroke:none;" d="M-14.5157 3.8399 L-14.5157 3.2774 Q-12.5157 3.2774 -12.5157 2.7618 L-12.5157 -5.6288 Q-13.3438 -5.2382 -14.6094 -5.2382 L-14.6094 -5.8007 Q-12.6407 -5.8007 -11.6407 -6.8163 L-11.4219 -6.8163 Q-11.3594 -6.8163 -11.3125 -6.7772 Q-11.2657 -6.7382 -11.2657 -6.6757 L-11.2657 2.7618 Q-11.2657 3.2774 -9.2657 3.2774 L-9.2657 3.8399 L-14.5157 3.8399 Z"
      /><path style="stroke:none;" d="M-4 4.1993 Q-5.9531 4.1993 -6.6641 2.5821 Q-7.375 0.9649 -7.375 -1.2694 Q-7.375 -2.6601 -7.1172 -3.8866 Q-6.8594 -5.1132 -6.1094 -5.9647 Q-5.3594 -6.8163 -4 -6.8163 Q-2.9375 -6.8163 -2.2656 -6.3007 Q-1.5938 -5.7851 -1.2422 -4.9726 Q-0.8906 -4.1601 -0.7656 -3.2226 Q-0.6406 -2.2851 -0.6406 -1.2694 Q-0.6406 0.1056 -0.8906 1.3087 Q-1.1406 2.5118 -1.8828 3.3556 Q-2.625 4.1993 -4 4.1993 ZM-4 3.7774 Q-3.1094 3.7774 -2.6719 2.8634 Q-2.2344 1.9493 -2.1328 0.8399 Q-2.0313 -0.2694 -2.0313 -1.5194 Q-2.0313 -2.7226 -2.1328 -3.7382 Q-2.2344 -4.7538 -2.6641 -5.5819 Q-3.0938 -6.4101 -4 -6.4101 Q-4.9063 -6.4101 -5.3438 -5.5819 Q-5.7813 -4.7538 -5.8828 -3.7382 Q-5.9844 -2.7226 -5.9844 -1.5194 Q-5.9844 -0.6288 -5.9375 0.1603 Q-5.8906 0.9493 -5.7031 1.7853 Q-5.5156 2.6212 -5.1016 3.1993 Q-4.6875 3.7774 -4 3.7774 Z"
    /></g
    ><g transform="translate(68.1333,201.5)" style="font-size:16px; fill:rgb(38,38,38); text-rendering:geometricPrecision; image-rendering:optimizeQuality; color-rendering:optimizeQuality; font-family:'mwa_cmr10'; stroke:rgb(38,38,38); color-interpolation:linearRGB;"
    ><path style="stroke:none;" d="M-14.5157 3.8399 L-14.5157 3.2774 Q-12.5157 3.2774 -12.5157 2.7618 L-12.5157 -5.6288 Q-13.3438 -5.2382 -14.6094 -5.2382 L-14.6094 -5.8007 Q-12.6407 -5.8007 -11.6407 -6.8163 L-11.4219 -6.8163 Q-11.3594 -6.8163 -11.3125 -6.7772 Q-11.2657 -6.7382 -11.2657 -6.6757 L-11.2657 2.7618 Q-11.2657 3.2774 -9.2657 3.2774 L-9.2657 3.8399 L-14.5157 3.8399 Z"
      /><path style="stroke:none;" d="M-6.6094 2.0118 Q-6.4375 2.4806 -6.1016 2.8634 Q-5.7656 3.2462 -5.2969 3.4649 Q-4.8281 3.6837 -4.3281 3.6837 Q-3.1719 3.6837 -2.7344 2.7853 Q-2.2969 1.8868 -2.2969 0.6056 Q-2.2969 0.0431 -2.3203 -0.3319 Q-2.3438 -0.7069 -2.4219 -1.0663 Q-2.5781 -1.6288 -2.9453 -2.0507 Q-3.3125 -2.4726 -3.8594 -2.4726 Q-4.3906 -2.4726 -4.7813 -2.3085 Q-5.1719 -2.1444 -5.4141 -1.9257 Q-5.6563 -1.7069 -5.8438 -1.4647 Q-6.0313 -1.2226 -6.0781 -1.2069 L-6.25 -1.2069 Q-6.2969 -1.2069 -6.3516 -1.2538 Q-6.4063 -1.3007 -6.4063 -1.3476 L-6.4063 -6.6913 Q-6.4063 -6.7382 -6.3594 -6.7772 Q-6.3125 -6.8163 -6.25 -6.8163 L-6.2031 -6.8163 Q-5.125 -6.3007 -3.9219 -6.3007 Q-2.7344 -6.3007 -1.625 -6.8163 L-1.5781 -6.8163 Q-1.5313 -6.8163 -1.4844 -6.7772 Q-1.4375 -6.7382 -1.4375 -6.6913 L-1.4375 -6.5507 Q-1.4375 -6.4726 -1.4688 -6.4726 Q-2.0156 -5.7382 -2.836 -5.3319 Q-3.6563 -4.9257 -4.5469 -4.9257 Q-5.1875 -4.9257 -5.8594 -5.1132 L-5.8594 -2.0819 Q-5.3281 -2.5194 -4.9063 -2.6991 Q-4.4844 -2.8788 -3.8438 -2.8788 Q-2.9531 -2.8788 -2.2578 -2.371 Q-1.5625 -1.8632 -1.1875 -1.0507 Q-0.8125 -0.2382 -0.8125 0.6212 Q-0.8125 1.5743 -1.2813 2.3946 Q-1.75 3.2149 -2.5625 3.7071 Q-3.375 4.1993 -4.3281 4.1993 Q-5.125 4.1993 -5.7813 3.7853 Q-6.4375 3.3712 -6.8203 2.6837 Q-7.2031 1.9962 -7.2031 1.2306 Q-7.2031 0.8712 -6.9688 0.6446 Q-6.7344 0.4181 -6.375 0.4181 Q-6.0313 0.4181 -5.7891 0.6446 Q-5.5469 0.8712 -5.5469 1.2306 Q-5.5469 1.5743 -5.7891 1.8087 Q-6.0313 2.0431 -6.375 2.0431 Q-6.4375 2.0431 -6.5078 2.0353 Q-6.5781 2.0274 -6.6094 2.0118 Z"
    /></g
    ><g transform="translate(68.1333,144.6667)" style="font-size:16px; fill:rgb(38,38,38); text-rendering:geometricPrecision; image-rendering:optimizeQuality; color-rendering:optimizeQuality; font-family:'mwa_cmr10'; stroke:rgb(38,38,38); color-interpolation:linearRGB;"
    ><path style="stroke:none;" d="M-15.2032 3.8399 L-15.2032 3.4024 Q-15.2032 3.3712 -15.1719 3.3243 L-12.6875 0.5743 Q-12.125 -0.0351 -11.7735 -0.4491 Q-11.4219 -0.8632 -11.0782 -1.4022 Q-10.7344 -1.9413 -10.5313 -2.5038 Q-10.3282 -3.0663 -10.3282 -3.6913 Q-10.3282 -4.3476 -10.5704 -4.9413 Q-10.8125 -5.5351 -11.2969 -5.8944 Q-11.7813 -6.2538 -12.4532 -6.2538 Q-13.1563 -6.2538 -13.711 -5.8397 Q-14.2657 -5.4257 -14.4844 -4.7538 Q-14.4219 -4.7694 -14.3125 -4.7694 Q-13.9532 -4.7694 -13.7032 -4.5272 Q-13.4532 -4.2851 -13.4532 -3.9101 Q-13.4532 -3.5351 -13.7032 -3.2851 Q-13.9532 -3.0351 -14.3125 -3.0351 Q-14.6875 -3.0351 -14.9454 -3.2929 Q-15.2032 -3.5507 -15.2032 -3.9101 Q-15.2032 -4.5038 -14.9766 -5.0351 Q-14.75 -5.5663 -14.3204 -5.9726 Q-13.8907 -6.3788 -13.3594 -6.5976 Q-12.8282 -6.8163 -12.2188 -6.8163 Q-11.3125 -6.8163 -10.5235 -6.4335 Q-9.7344 -6.0507 -9.2735 -5.3397 Q-8.8125 -4.6288 -8.8125 -3.6913 Q-8.8125 -2.9882 -9.1172 -2.3632 Q-9.4219 -1.7382 -9.8985 -1.2304 Q-10.375 -0.7226 -11.1172 -0.0741 Q-11.8594 0.5743 -12.0938 0.7931 L-13.9063 2.5431 L-12.3594 2.5431 Q-11.2344 2.5431 -10.4688 2.5196 Q-9.7032 2.4962 -9.6563 2.4649 Q-9.4688 2.2618 -9.2813 0.9806 L-8.8125 0.9806 L-9.2657 3.8399 L-15.2032 3.8399 Z"
      /><path style="stroke:none;" d="M-4 4.1993 Q-5.9531 4.1993 -6.6641 2.5821 Q-7.375 0.9649 -7.375 -1.2694 Q-7.375 -2.6601 -7.1172 -3.8866 Q-6.8594 -5.1132 -6.1094 -5.9647 Q-5.3594 -6.8163 -4 -6.8163 Q-2.9375 -6.8163 -2.2656 -6.3007 Q-1.5938 -5.7851 -1.2422 -4.9726 Q-0.8906 -4.1601 -0.7656 -3.2226 Q-0.6406 -2.2851 -0.6406 -1.2694 Q-0.6406 0.1056 -0.8906 1.3087 Q-1.1406 2.5118 -1.8828 3.3556 Q-2.625 4.1993 -4 4.1993 ZM-4 3.7774 Q-3.1094 3.7774 -2.6719 2.8634 Q-2.2344 1.9493 -2.1328 0.8399 Q-2.0313 -0.2694 -2.0313 -1.5194 Q-2.0313 -2.7226 -2.1328 -3.7382 Q-2.2344 -4.7538 -2.6641 -5.5819 Q-3.0938 -6.4101 -4 -6.4101 Q-4.9063 -6.4101 -5.3438 -5.5819 Q-5.7813 -4.7538 -5.8828 -3.7382 Q-5.9844 -2.7226 -5.9844 -1.5194 Q-5.9844 -0.6288 -5.9375 0.1603 Q-5.8906 0.9493 -5.7031 1.7853 Q-5.5156 2.6212 -5.1016 3.1993 Q-4.6875 3.7774 -4 3.7774 Z"
    /></g
    ><g transform="translate(68.1333,87.8333)" style="font-size:16px; fill:rgb(38,38,38); text-rendering:geometricPrecision; image-rendering:optimizeQuality; color-rendering:optimizeQuality; font-family:'mwa_cmr10'; stroke:rgb(38,38,38); color-interpolation:linearRGB;"
    ><path style="stroke:none;" d="M-15.2032 3.8399 L-15.2032 3.4024 Q-15.2032 3.3712 -15.1719 3.3243 L-12.6875 0.5743 Q-12.125 -0.0351 -11.7735 -0.4491 Q-11.4219 -0.8632 -11.0782 -1.4022 Q-10.7344 -1.9413 -10.5313 -2.5038 Q-10.3282 -3.0663 -10.3282 -3.6913 Q-10.3282 -4.3476 -10.5704 -4.9413 Q-10.8125 -5.5351 -11.2969 -5.8944 Q-11.7813 -6.2538 -12.4532 -6.2538 Q-13.1563 -6.2538 -13.711 -5.8397 Q-14.2657 -5.4257 -14.4844 -4.7538 Q-14.4219 -4.7694 -14.3125 -4.7694 Q-13.9532 -4.7694 -13.7032 -4.5272 Q-13.4532 -4.2851 -13.4532 -3.9101 Q-13.4532 -3.5351 -13.7032 -3.2851 Q-13.9532 -3.0351 -14.3125 -3.0351 Q-14.6875 -3.0351 -14.9454 -3.2929 Q-15.2032 -3.5507 -15.2032 -3.9101 Q-15.2032 -4.5038 -14.9766 -5.0351 Q-14.75 -5.5663 -14.3204 -5.9726 Q-13.8907 -6.3788 -13.3594 -6.5976 Q-12.8282 -6.8163 -12.2188 -6.8163 Q-11.3125 -6.8163 -10.5235 -6.4335 Q-9.7344 -6.0507 -9.2735 -5.3397 Q-8.8125 -4.6288 -8.8125 -3.6913 Q-8.8125 -2.9882 -9.1172 -2.3632 Q-9.4219 -1.7382 -9.8985 -1.2304 Q-10.375 -0.7226 -11.1172 -0.0741 Q-11.8594 0.5743 -12.0938 0.7931 L-13.9063 2.5431 L-12.3594 2.5431 Q-11.2344 2.5431 -10.4688 2.5196 Q-9.7032 2.4962 -9.6563 2.4649 Q-9.4688 2.2618 -9.2813 0.9806 L-8.8125 0.9806 L-9.2657 3.8399 L-15.2032 3.8399 Z"
      /><path style="stroke:none;" d="M-6.6094 2.0118 Q-6.4375 2.4806 -6.1016 2.8634 Q-5.7656 3.2462 -5.2969 3.4649 Q-4.8281 3.6837 -4.3281 3.6837 Q-3.1719 3.6837 -2.7344 2.7853 Q-2.2969 1.8868 -2.2969 0.6056 Q-2.2969 0.0431 -2.3203 -0.3319 Q-2.3438 -0.7069 -2.4219 -1.0663 Q-2.5781 -1.6288 -2.9453 -2.0507 Q-3.3125 -2.4726 -3.8594 -2.4726 Q-4.3906 -2.4726 -4.7813 -2.3085 Q-5.1719 -2.1444 -5.4141 -1.9257 Q-5.6563 -1.7069 -5.8438 -1.4647 Q-6.0313 -1.2226 -6.0781 -1.2069 L-6.25 -1.2069 Q-6.2969 -1.2069 -6.3516 -1.2538 Q-6.4063 -1.3007 -6.4063 -1.3476 L-6.4063 -6.6913 Q-6.4063 -6.7382 -6.3594 -6.7772 Q-6.3125 -6.8163 -6.25 -6.8163 L-6.2031 -6.8163 Q-5.125 -6.3007 -3.9219 -6.3007 Q-2.7344 -6.3007 -1.625 -6.8163 L-1.5781 -6.8163 Q-1.5313 -6.8163 -1.4844 -6.7772 Q-1.4375 -6.7382 -1.4375 -6.6913 L-1.4375 -6.5507 Q-1.4375 -6.4726 -1.4688 -6.4726 Q-2.0156 -5.7382 -2.836 -5.3319 Q-3.6563 -4.9257 -4.5469 -4.9257 Q-5.1875 -4.9257 -5.8594 -5.1132 L-5.8594 -2.0819 Q-5.3281 -2.5194 -4.9063 -2.6991 Q-4.4844 -2.8788 -3.8438 -2.8788 Q-2.9531 -2.8788 -2.2578 -2.371 Q-1.5625 -1.8632 -1.1875 -1.0507 Q-0.8125 -0.2382 -0.8125 0.6212 Q-0.8125 1.5743 -1.2813 2.3946 Q-1.75 3.2149 -2.5625 3.7071 Q-3.375 4.1993 -4.3281 4.1993 Q-5.125 4.1993 -5.7813 3.7853 Q-6.4375 3.3712 -6.8203 2.6837 Q-7.2031 1.9962 -7.2031 1.2306 Q-7.2031 0.8712 -6.9688 0.6446 Q-6.7344 0.4181 -6.375 0.4181 Q-6.0313 0.4181 -5.7891 0.6446 Q-5.5469 0.8712 -5.5469 1.2306 Q-5.5469 1.5743 -5.7891 1.8087 Q-6.0313 2.0431 -6.375 2.0431 Q-6.4375 2.0431 -6.5078 2.0353 Q-6.5781 2.0274 -6.6094 2.0118 Z"
    /></g
    ><g transform="translate(68.1333,31)" style="font-size:16px; fill:rgb(38,38,38); text-rendering:geometricPrecision; image-rendering:optimizeQuality; color-rendering:optimizeQuality; font-family:'mwa_cmr10'; stroke:rgb(38,38,38); color-interpolation:linearRGB;"
    ><path style="stroke:none;" d="M-14.4688 2.6056 Q-14.0938 3.1524 -13.461 3.4181 Q-12.8282 3.6837 -12.1094 3.6837 Q-11.1719 3.6837 -10.7813 2.8868 Q-10.3907 2.0899 -10.3907 1.0899 Q-10.3907 0.6368 -10.4766 0.1837 Q-10.5625 -0.2694 -10.7579 -0.6601 Q-10.9532 -1.0507 -11.2891 -1.2851 Q-11.625 -1.5194 -12.125 -1.5194 L-13.1875 -1.5194 Q-13.3282 -1.5194 -13.3282 -1.6757 L-13.3282 -1.8163 Q-13.3282 -1.9413 -13.1875 -1.9413 L-12.2969 -2.0038 Q-11.7344 -2.0038 -11.3672 -2.4257 Q-11 -2.8476 -10.8282 -3.4569 Q-10.6563 -4.0663 -10.6563 -4.6132 Q-10.6563 -5.3788 -11.0157 -5.871 Q-11.375 -6.3632 -12.1094 -6.3632 Q-12.7188 -6.3632 -13.2735 -6.1288 Q-13.8282 -5.8944 -14.1563 -5.4257 Q-14.125 -5.4413 -14.1016 -5.4413 Q-14.0782 -5.4413 -14.0469 -5.4413 Q-13.6875 -5.4413 -13.4454 -5.1913 Q-13.2032 -4.9413 -13.2032 -4.5976 Q-13.2032 -4.2538 -13.4454 -4.0038 Q-13.6875 -3.7538 -14.0469 -3.7538 Q-14.3907 -3.7538 -14.6407 -4.0038 Q-14.8907 -4.2538 -14.8907 -4.5976 Q-14.8907 -5.2851 -14.4766 -5.7929 Q-14.0625 -6.3007 -13.4141 -6.5585 Q-12.7657 -6.8163 -12.1094 -6.8163 Q-11.625 -6.8163 -11.086 -6.6757 Q-10.5469 -6.5351 -10.1094 -6.2616 Q-9.6719 -5.9882 -9.3907 -5.5663 Q-9.1094 -5.1444 -9.1094 -4.6132 Q-9.1094 -3.9413 -9.4141 -3.371 Q-9.7188 -2.8007 -10.2422 -2.3866 Q-10.7657 -1.9726 -11.3907 -1.7694 Q-10.6875 -1.6288 -10.0625 -1.2382 Q-9.4375 -0.8476 -9.0625 -0.2382 Q-8.6875 0.3712 -8.6875 1.0743 Q-8.6875 1.9493 -9.1719 2.6681 Q-9.6563 3.3868 -10.4454 3.7931 Q-11.2344 4.1993 -12.1094 4.1993 Q-12.8594 4.1993 -13.6094 3.9103 Q-14.3594 3.6212 -14.8438 3.0509 Q-15.3282 2.4806 -15.3282 1.6837 Q-15.3282 1.2774 -15.0625 1.0118 Q-14.7969 0.7462 -14.3907 0.7462 Q-14.1407 0.7462 -13.9219 0.8712 Q-13.7032 0.9962 -13.586 1.2149 Q-13.4688 1.4337 -13.4688 1.6837 Q-13.4688 2.0743 -13.7422 2.3399 Q-14.0157 2.6056 -14.3907 2.6056 L-14.4688 2.6056 Z"
      /><path style="stroke:none;" d="M-4 4.1993 Q-5.9531 4.1993 -6.6641 2.5821 Q-7.375 0.9649 -7.375 -1.2694 Q-7.375 -2.6601 -7.1172 -3.8866 Q-6.8594 -5.1132 -6.1094 -5.9647 Q-5.3594 -6.8163 -4 -6.8163 Q-2.9375 -6.8163 -2.2656 -6.3007 Q-1.5938 -5.7851 -1.2422 -4.9726 Q-0.8906 -4.1601 -0.7656 -3.2226 Q-0.6406 -2.2851 -0.6406 -1.2694 Q-0.6406 0.1056 -0.8906 1.3087 Q-1.1406 2.5118 -1.8828 3.3556 Q-2.625 4.1993 -4 4.1993 ZM-4 3.7774 Q-3.1094 3.7774 -2.6719 2.8634 Q-2.2344 1.9493 -2.1328 0.8399 Q-2.0313 -0.2694 -2.0313 -1.5194 Q-2.0313 -2.7226 -2.1328 -3.7382 Q-2.2344 -4.7538 -2.6641 -5.5819 Q-3.0938 -6.4101 -4 -6.4101 Q-4.9063 -6.4101 -5.3438 -5.5819 Q-5.7813 -4.7538 -5.8828 -3.7382 Q-5.9844 -2.7226 -5.9844 -1.5194 Q-5.9844 -0.6288 -5.9375 0.1603 Q-5.8906 0.9493 -5.7031 1.7853 Q-5.5156 2.6212 -5.1016 3.1993 Q-4.6875 3.7774 -4 3.7774 Z"
    /></g
    ><g transform="translate(48.1333,201.4998) rotate(-90)" style="font-size:17.6px; fill:rgb(38,38,38); text-rendering:geometricPrecision; image-rendering:optimizeQuality; color-rendering:optimizeQuality; font-family:'mwa_cmr10'; stroke:rgb(38,38,38); color-interpolation:linearRGB;"
    ><path style="stroke:none;" d="M-106.369 -6.0861 L-106.369 -10.2892 Q-106.369 -10.4298 -106.2128 -10.4298 L-105.994 -10.4298 Q-105.9471 -10.4298 -105.9003 -10.3829 Q-105.8534 -10.3361 -105.8534 -10.2892 Q-105.8534 -8.5236 -104.7596 -7.547 Q-103.6659 -6.5704 -101.8846 -6.5704 Q-101.2596 -6.5704 -100.7362 -6.9298 Q-100.2128 -7.2892 -99.9159 -7.8751 Q-99.619 -8.4611 -99.619 -9.0861 Q-99.619 -9.6329 -99.8378 -10.1486 Q-100.0565 -10.6642 -100.4706 -11.0392 Q-100.8846 -11.4142 -101.4003 -11.5392 L-103.744 -12.1173 Q-104.9003 -12.4142 -105.6346 -13.3673 Q-106.369 -14.3204 -106.369 -15.5079 Q-106.369 -16.4454 -105.9003 -17.2658 Q-105.4315 -18.0861 -104.6268 -18.5548 Q-103.8221 -19.0236 -102.8846 -19.0236 Q-101.0878 -19.0236 -100.0253 -17.8048 L-99.2753 -18.9767 Q-99.2284 -19.0236 -99.1503 -19.0236 L-99.0409 -19.0236 Q-98.9784 -19.0236 -98.9315 -18.9845 Q-98.8846 -18.9454 -98.8846 -18.8829 L-98.8846 -14.7111 Q-98.8846 -14.5392 -99.0409 -14.5392 L-99.244 -14.5392 Q-99.4159 -14.5392 -99.4159 -14.7111 Q-99.4159 -15.1642 -99.5643 -15.7111 Q-99.7128 -16.2579 -99.9862 -16.7579 Q-100.2596 -17.2579 -100.5878 -17.5704 Q-101.4471 -18.4454 -102.8846 -18.4454 Q-103.494 -18.4454 -104.0174 -18.1329 Q-104.5409 -17.8204 -104.8456 -17.2892 Q-105.1503 -16.7579 -105.1503 -16.1642 Q-105.1503 -15.3829 -104.6737 -14.7579 Q-104.1971 -14.1329 -103.4159 -13.9298 L-101.0878 -13.3517 Q-100.5096 -13.2111 -99.994 -12.8517 Q-99.4784 -12.4923 -99.1346 -12.0079 Q-98.7909 -11.5236 -98.5956 -10.9298 Q-98.4003 -10.3361 -98.4003 -9.6954 Q-98.4003 -8.7267 -98.8456 -7.8595 Q-99.2909 -6.9923 -100.1112 -6.4689 Q-100.9315 -5.9454 -101.8846 -5.9454 Q-102.494 -5.9454 -103.119 -6.0783 Q-103.744 -6.2111 -104.2674 -6.4767 Q-104.7909 -6.7423 -105.2284 -7.1798 L-105.9784 -5.9923 Q-106.0253 -5.9454 -106.1034 -5.9454 L-106.2128 -5.9454 Q-106.369 -5.9454 -106.369 -6.0861 Z"
      /><path style="stroke:none;" d="M-97.1381 -2.8517 L-97.1381 -3.4767 Q-96.5287 -3.4767 -96.1303 -3.5783 Q-95.7318 -3.6798 -95.7318 -4.0548 L-95.7318 -12.7267 Q-95.7318 -13.2111 -96.0834 -13.3361 Q-96.4349 -13.4611 -97.1381 -13.4611 L-97.1381 -14.1017 L-94.4818 -14.2892 L-94.4818 -13.1798 Q-93.9818 -13.7267 -93.3256 -14.0079 Q-92.6693 -14.2892 -91.9349 -14.2892 Q-90.8724 -14.2892 -90.0209 -13.7111 Q-89.1693 -13.1329 -88.6928 -12.2033 Q-88.2162 -11.2736 -88.2162 -10.2267 Q-88.2162 -9.1329 -88.7474 -8.1954 Q-89.2787 -7.2579 -90.1928 -6.6954 Q-91.1068 -6.1329 -92.2162 -6.1329 Q-93.5131 -6.1329 -94.4193 -7.1954 L-94.4193 -4.0548 Q-94.4193 -3.6798 -94.0209 -3.5783 Q-93.6224 -3.4767 -93.0131 -3.4767 L-93.0131 -2.8517 L-97.1381 -2.8517 ZM-94.4193 -8.0861 Q-94.1068 -7.4454 -93.5443 -7.0236 Q-92.9818 -6.6017 -92.3099 -6.6017 Q-91.6849 -6.6017 -91.2084 -6.9376 Q-90.7318 -7.2736 -90.4037 -7.8361 Q-90.0756 -8.3986 -89.9271 -9.0236 Q-89.7787 -9.6486 -89.7787 -10.2267 Q-89.7787 -10.9454 -90.0365 -11.7814 Q-90.2943 -12.6173 -90.8256 -13.1954 Q-91.3568 -13.7736 -92.1068 -13.7736 Q-92.8412 -13.7736 -93.4506 -13.3986 Q-94.0599 -13.0236 -94.4193 -12.3829 L-94.4193 -8.0861 Z"
      /><path style="stroke:none;" d="M-82.8557 -6.1329 Q-83.9495 -6.1329 -84.8714 -6.7111 Q-85.7932 -7.2892 -86.3167 -8.2501 Q-86.8401 -9.2111 -86.8401 -10.2892 Q-86.8401 -11.3361 -86.3635 -12.2892 Q-85.887 -13.2423 -85.0276 -13.8204 Q-84.1682 -14.3986 -83.1057 -14.3986 Q-82.2932 -14.3986 -81.676 -14.1251 Q-81.0589 -13.8517 -80.6682 -13.3595 Q-80.2776 -12.8673 -80.0745 -12.1954 Q-79.8714 -11.5236 -79.8714 -10.7267 Q-79.8714 -10.4923 -80.0589 -10.4923 L-85.262 -10.4923 L-85.262 -10.3048 Q-85.262 -8.8048 -84.6604 -7.7345 Q-84.0589 -6.6642 -82.6995 -6.6642 Q-82.1526 -6.6642 -81.676 -6.9064 Q-81.1995 -7.1486 -80.8557 -7.5939 Q-80.512 -8.0392 -80.387 -8.5392 Q-80.3714 -8.6017 -80.3245 -8.6486 Q-80.2776 -8.6954 -80.2151 -8.6954 L-80.0589 -8.6954 Q-79.8714 -8.6954 -79.8714 -8.4611 Q-80.1214 -7.4454 -80.9651 -6.7892 Q-81.8089 -6.1329 -82.8557 -6.1329 ZM-85.2464 -10.9454 L-81.137 -10.9454 Q-81.137 -11.6173 -81.3323 -12.3126 Q-81.5276 -13.0079 -81.9651 -13.4689 Q-82.4026 -13.9298 -83.1057 -13.9298 Q-84.137 -13.9298 -84.6917 -12.9767 Q-85.2464 -12.0236 -85.2464 -10.9454 Z"
      /><path style="stroke:none;" d="M-75.0335 -6.1329 Q-76.1273 -6.1329 -77.0101 -6.7033 Q-77.8929 -7.2736 -78.4085 -8.2189 Q-78.9241 -9.1642 -78.9241 -10.2267 Q-78.9241 -11.2892 -78.4163 -12.2658 Q-77.9085 -13.2423 -77.0179 -13.8204 Q-76.1273 -14.3986 -75.0335 -14.3986 Q-73.9866 -14.3986 -73.1195 -13.9923 Q-72.2523 -13.5861 -72.2523 -12.6329 Q-72.2523 -12.2892 -72.5023 -12.0314 Q-72.7523 -11.7736 -73.1116 -11.7736 Q-73.471 -11.7736 -73.721 -12.0314 Q-73.971 -12.2892 -73.971 -12.6329 Q-73.971 -12.9611 -73.7679 -13.1876 Q-73.5648 -13.4142 -73.2679 -13.4767 Q-73.8929 -13.8829 -75.0179 -13.8829 Q-75.8773 -13.8829 -76.4085 -13.3126 Q-76.9398 -12.7423 -77.1507 -11.8986 Q-77.3616 -11.0548 -77.3616 -10.2267 Q-77.3616 -9.3517 -77.096 -8.5392 Q-76.8304 -7.7267 -76.2601 -7.1954 Q-75.6898 -6.6642 -74.8148 -6.6642 Q-73.9554 -6.6642 -73.3616 -7.1876 Q-72.7679 -7.7111 -72.5491 -8.5548 Q-72.5491 -8.6642 -72.4085 -8.6642 L-72.1898 -8.6642 Q-72.1273 -8.6642 -72.0882 -8.6095 Q-72.0491 -8.5548 -72.0491 -8.4923 L-72.0491 -8.4454 Q-72.3148 -7.3829 -73.1273 -6.7579 Q-73.9398 -6.1329 -75.0335 -6.1329 Z"
      /><path style="stroke:none;" d="M-69.8519 -8.4923 L-69.8519 -13.4611 L-71.3519 -13.4611 L-71.3519 -13.9298 Q-70.18 -13.9298 -69.6254 -15.0314 Q-69.0707 -16.1329 -69.0707 -17.4142 L-68.555 -17.4142 L-68.555 -14.1017 L-66.0082 -14.1017 L-66.0082 -13.4611 L-68.555 -13.4611 L-68.555 -8.5392 Q-68.555 -7.7892 -68.305 -7.2267 Q-68.055 -6.6642 -67.3988 -6.6642 Q-66.7894 -6.6642 -66.516 -7.2579 Q-66.2425 -7.8517 -66.2425 -8.5392 L-66.2425 -9.6017 L-65.7113 -9.6017 L-65.7113 -8.4923 Q-65.7113 -7.9298 -65.9222 -7.3829 Q-66.1332 -6.8361 -66.5394 -6.4845 Q-66.9457 -6.1329 -67.5238 -6.1329 Q-68.6019 -6.1329 -69.2269 -6.7814 Q-69.8519 -7.4298 -69.8519 -8.4923 Z"
      /><path style="stroke:none;" d="M-64.3825 -6.3361 L-64.3825 -6.9767 Q-63.7731 -6.9767 -63.3746 -7.0704 Q-62.9762 -7.1642 -62.9762 -7.5392 L-62.9762 -12.4611 Q-62.9762 -12.9298 -63.1246 -13.1486 Q-63.2731 -13.3673 -63.5465 -13.4142 Q-63.82 -13.4611 -64.3825 -13.4611 L-64.3825 -14.1017 L-61.8043 -14.2892 L-61.8043 -12.5392 Q-61.5231 -13.3204 -60.984 -13.8048 Q-60.445 -14.2892 -59.6793 -14.2892 Q-59.1481 -14.2892 -58.7262 -13.9767 Q-58.3043 -13.6642 -58.3043 -13.1329 Q-58.3043 -12.8204 -58.5387 -12.5783 Q-58.7731 -12.3361 -59.1168 -12.3361 Q-59.445 -12.3361 -59.6793 -12.5704 Q-59.9137 -12.8048 -59.9137 -13.1329 Q-59.9137 -13.6173 -59.57 -13.8204 L-59.6793 -13.8204 Q-60.4137 -13.8204 -60.8746 -13.297 Q-61.3356 -12.7736 -61.5309 -11.9923 Q-61.7262 -11.2111 -61.7262 -10.4923 L-61.7262 -7.5392 Q-61.7262 -6.9767 -59.9762 -6.9767 L-59.9762 -6.3361 L-64.3825 -6.3361 Z"
      /><path style="stroke:none;" d="M-57.2391 -8.1017 Q-57.2391 -9.1798 -56.3954 -9.8517 Q-55.5516 -10.5236 -54.3719 -10.797 Q-53.1922 -11.0704 -52.1141 -11.0704 L-52.1141 -11.8048 Q-52.1141 -12.3361 -52.3485 -12.8204 Q-52.5829 -13.3048 -53.0126 -13.6173 Q-53.4422 -13.9298 -53.9579 -13.9298 Q-55.161 -13.9298 -55.7704 -13.3986 Q-55.4422 -13.3986 -55.2157 -13.1408 Q-54.9891 -12.8829 -54.9891 -12.5392 Q-54.9891 -12.1798 -55.2391 -11.922 Q-55.4891 -11.6642 -55.8485 -11.6642 Q-56.2079 -11.6642 -56.4657 -11.922 Q-56.7235 -12.1798 -56.7235 -12.5392 Q-56.7235 -13.4767 -55.8563 -13.9376 Q-54.9891 -14.3986 -53.9579 -14.3986 Q-53.2235 -14.3986 -52.4891 -14.0861 Q-51.7547 -13.7736 -51.286 -13.1954 Q-50.8172 -12.6173 -50.8172 -11.8517 L-50.8172 -7.7892 Q-50.8172 -7.4454 -50.6688 -7.1486 Q-50.5204 -6.8517 -50.1922 -6.8517 Q-49.8954 -6.8517 -49.7547 -7.1486 Q-49.6141 -7.4454 -49.6141 -7.7892 L-49.6141 -8.9454 L-49.0829 -8.9454 L-49.0829 -7.7892 Q-49.0829 -7.3986 -49.2938 -7.0314 Q-49.5047 -6.6642 -49.8563 -6.4454 Q-50.2079 -6.2267 -50.6297 -6.2267 Q-51.161 -6.2267 -51.5438 -6.6408 Q-51.9266 -7.0548 -51.9579 -7.6173 Q-52.3016 -6.9298 -52.9501 -6.5314 Q-53.5985 -6.1329 -54.3329 -6.1329 Q-55.0204 -6.1329 -55.6844 -6.3361 Q-56.3485 -6.5392 -56.7938 -6.9767 Q-57.2391 -7.4142 -57.2391 -8.1017 ZM-55.7704 -8.1017 Q-55.7704 -7.4767 -55.3094 -7.0392 Q-54.8485 -6.6017 -54.2079 -6.6017 Q-53.6297 -6.6017 -53.1532 -6.8986 Q-52.6766 -7.1954 -52.3954 -7.6954 Q-52.1141 -8.1954 -52.1141 -8.7423 L-52.1141 -10.6173 Q-52.9422 -10.6173 -53.7938 -10.3517 Q-54.6454 -10.0861 -55.2079 -9.5158 Q-55.7704 -8.9454 -55.7704 -8.1017 Z"
      /><path style="stroke:none;" d="M-48.611 -6.3361 L-48.611 -6.9767 Q-47.986 -6.9767 -47.5953 -7.0704 Q-47.2047 -7.1642 -47.2047 -7.5392 L-47.2047 -16.9923 Q-47.2047 -17.4767 -47.3453 -17.6876 Q-47.486 -17.8986 -47.7594 -17.9454 Q-48.0328 -17.9923 -48.611 -17.9923 L-48.611 -18.6329 L-45.9391 -18.8204 L-45.9391 -7.5392 Q-45.9391 -7.1642 -45.5406 -7.0704 Q-45.1422 -6.9767 -44.5328 -6.9767 L-44.5328 -6.3361 L-48.611 -6.3361 Z"
      /><path style="stroke:none;" d="M-33.9179 -6.1329 Q-35.0116 -6.1329 -35.9335 -6.7111 Q-36.8554 -7.2892 -37.3788 -8.2501 Q-37.9023 -9.2111 -37.9023 -10.2892 Q-37.9023 -11.3361 -37.4257 -12.2892 Q-36.9491 -13.2423 -36.0898 -13.8204 Q-35.2304 -14.3986 -34.1679 -14.3986 Q-33.3554 -14.3986 -32.7382 -14.1251 Q-32.121 -13.8517 -31.7304 -13.3595 Q-31.3398 -12.8673 -31.1366 -12.1954 Q-30.9335 -11.5236 -30.9335 -10.7267 Q-30.9335 -10.4923 -31.121 -10.4923 L-36.3241 -10.4923 L-36.3241 -10.3048 Q-36.3241 -8.8048 -35.7226 -7.7345 Q-35.121 -6.6642 -33.7616 -6.6642 Q-33.2148 -6.6642 -32.7382 -6.9064 Q-32.2616 -7.1486 -31.9179 -7.5939 Q-31.5741 -8.0392 -31.4491 -8.5392 Q-31.4335 -8.6017 -31.3866 -8.6486 Q-31.3398 -8.6954 -31.2773 -8.6954 L-31.121 -8.6954 Q-30.9335 -8.6954 -30.9335 -8.4611 Q-31.1835 -7.4454 -32.0273 -6.7892 Q-32.871 -6.1329 -33.9179 -6.1329 ZM-36.3085 -10.9454 L-32.1991 -10.9454 Q-32.1991 -11.6173 -32.3945 -12.3126 Q-32.5898 -13.0079 -33.0273 -13.4689 Q-33.4648 -13.9298 -34.1679 -13.9298 Q-35.1991 -13.9298 -35.7538 -12.9767 Q-36.3085 -12.0236 -36.3085 -10.9454 Z"
      /><path style="stroke:none;" d="M-30.1113 -6.3361 L-30.1113 -6.9767 Q-29.5019 -6.9767 -29.1035 -7.0704 Q-28.7051 -7.1642 -28.7051 -7.5392 L-28.7051 -13.4611 L-30.0957 -13.4611 L-30.0957 -14.1017 L-28.7051 -14.1017 L-28.7051 -16.2579 Q-28.7051 -16.9298 -28.3222 -17.4611 Q-27.9394 -17.9923 -27.3457 -18.3361 Q-26.7519 -18.6798 -26.0566 -18.8517 Q-25.3613 -19.0236 -24.7207 -19.0236 Q-24.1269 -19.0236 -23.5801 -18.7658 Q-23.0332 -18.5079 -22.7832 -18.0392 Q-21.5957 -19.0236 -19.7051 -19.0236 Q-19.1738 -19.0236 -18.666 -18.8048 Q-18.1582 -18.5861 -17.8222 -18.1564 Q-17.4863 -17.7267 -17.4863 -17.1798 Q-17.4863 -16.8204 -17.7441 -16.5626 Q-18.0019 -16.3048 -18.3613 -16.3048 Q-18.7363 -16.3048 -18.9785 -16.5548 Q-19.2207 -16.8048 -19.2207 -17.1798 Q-19.2207 -17.5236 -18.9863 -17.7814 Q-18.7519 -18.0392 -18.4082 -18.0392 Q-18.9707 -18.5548 -19.8457 -18.5548 Q-20.5019 -18.5548 -21.1269 -18.2579 Q-21.7519 -17.9611 -22.1347 -17.422 Q-22.5176 -16.8829 -22.5176 -16.2111 L-22.5176 -14.1017 L-20.1426 -14.1017 L-17.4707 -14.3204 L-17.4707 -7.5392 Q-17.4707 -7.1642 -17.0801 -7.0704 Q-16.6894 -6.9767 -16.0644 -6.9767 L-16.0644 -6.3361 L-20.1426 -6.3361 L-20.1426 -6.9767 Q-19.5176 -6.9767 -19.1269 -7.0704 Q-18.7363 -7.1642 -18.7363 -7.5392 L-18.7363 -12.4923 Q-18.7363 -12.9923 -18.8535 -13.2033 Q-18.9707 -13.4142 -19.4394 -13.4611 L-22.4551 -13.4611 L-22.4551 -7.5392 Q-22.4551 -7.1642 -22.0644 -7.0704 Q-21.6738 -6.9767 -21.0644 -6.9767 L-21.0644 -6.3361 L-25.1269 -6.3361 L-25.1269 -6.9767 Q-24.5176 -6.9767 -24.1191 -7.0704 Q-23.7207 -7.1642 -23.7207 -7.5392 L-23.7207 -13.4611 L-27.4551 -13.4611 L-27.4551 -7.5392 Q-27.4551 -7.1642 -27.0566 -7.0704 Q-26.6582 -6.9767 -26.0488 -6.9767 L-26.0488 -6.3361 L-30.1113 -6.3361 ZM-27.5019 -14.1017 L-23.7207 -14.1017 L-23.7207 -16.2579 L-23.7207 -16.3673 Q-23.9863 -16.4611 -24.1269 -16.6876 Q-24.2676 -16.9142 -24.2676 -17.1798 Q-24.2676 -17.5236 -24.0332 -17.7814 Q-23.7988 -18.0392 -23.4551 -18.0392 Q-24.0019 -18.5548 -24.8769 -18.5548 Q-25.5332 -18.5548 -26.1426 -18.2579 Q-26.7519 -17.9611 -27.1269 -17.4142 Q-27.5019 -16.8673 -27.5019 -16.2111 L-27.5019 -14.1017 Z"
      /><path style="stroke:none;" d="M-11.429 -6.1329 Q-12.5227 -6.1329 -13.4055 -6.7033 Q-14.2883 -7.2736 -14.804 -8.2189 Q-15.3196 -9.1642 -15.3196 -10.2267 Q-15.3196 -11.2892 -14.8118 -12.2658 Q-14.304 -13.2423 -13.4133 -13.8204 Q-12.5227 -14.3986 -11.429 -14.3986 Q-10.3821 -14.3986 -9.5149 -13.9923 Q-8.6477 -13.5861 -8.6477 -12.6329 Q-8.6477 -12.2892 -8.8977 -12.0314 Q-9.1477 -11.7736 -9.5071 -11.7736 Q-9.8665 -11.7736 -10.1165 -12.0314 Q-10.3665 -12.2892 -10.3665 -12.6329 Q-10.3665 -12.9611 -10.1633 -13.1876 Q-9.9602 -13.4142 -9.6633 -13.4767 Q-10.2883 -13.8829 -11.4133 -13.8829 Q-12.2727 -13.8829 -12.804 -13.3126 Q-13.3352 -12.7423 -13.5462 -11.8986 Q-13.7571 -11.0548 -13.7571 -10.2267 Q-13.7571 -9.3517 -13.4915 -8.5392 Q-13.2258 -7.7267 -12.6555 -7.1954 Q-12.0852 -6.6642 -11.2102 -6.6642 Q-10.3508 -6.6642 -9.7571 -7.1876 Q-9.1633 -7.7111 -8.9446 -8.5548 Q-8.9446 -8.6642 -8.804 -8.6642 L-8.5852 -8.6642 Q-8.5227 -8.6642 -8.4837 -8.6095 Q-8.4446 -8.5548 -8.4446 -8.4923 L-8.4446 -8.4454 Q-8.7102 -7.3829 -9.5227 -6.7579 Q-10.3352 -6.1329 -11.429 -6.1329 Z"
      /><path style="stroke:none;" d="M-7.5442 -6.3361 L-7.5442 -6.9767 Q-6.9192 -6.9767 -6.5286 -7.0704 Q-6.138 -7.1642 -6.138 -7.5392 L-6.138 -12.4611 Q-6.138 -13.1486 -6.4036 -13.3048 Q-6.6692 -13.4611 -7.4505 -13.4611 L-7.4505 -14.1017 L-4.8724 -14.2892 L-4.8724 -7.5392 Q-4.8724 -7.1642 -4.5286 -7.0704 Q-4.1849 -6.9767 -3.6067 -6.9767 L-3.6067 -6.3361 L-7.5442 -6.3361 ZM-6.7786 -17.3829 Q-6.7786 -17.7736 -6.4739 -18.0783 Q-6.1692 -18.3829 -5.7942 -18.3829 Q-5.5286 -18.3829 -5.2942 -18.2501 Q-5.0599 -18.1173 -4.9271 -17.8751 Q-4.7942 -17.6329 -4.7942 -17.3829 Q-4.7942 -16.9923 -5.0911 -16.6954 Q-5.388 -16.3986 -5.7942 -16.3986 Q-6.1692 -16.3986 -6.4739 -16.6954 Q-6.7786 -16.9923 -6.7786 -17.3829 Z"
      /><path style="stroke:none;" d="M1.2822 -6.1329 Q0.1884 -6.1329 -0.7335 -6.7111 Q-1.6553 -7.2892 -2.1788 -8.2501 Q-2.7022 -9.2111 -2.7022 -10.2892 Q-2.7022 -11.3361 -2.2257 -12.2892 Q-1.7491 -13.2423 -0.8897 -13.8204 Q-0.0303 -14.3986 1.0322 -14.3986 Q1.8447 -14.3986 2.4618 -14.1251 Q3.079 -13.8517 3.4697 -13.3595 Q3.8603 -12.8673 4.0634 -12.1954 Q4.2665 -11.5236 4.2665 -10.7267 Q4.2665 -10.4923 4.079 -10.4923 L-1.1241 -10.4923 L-1.1241 -10.3048 Q-1.1241 -8.8048 -0.5225 -7.7345 Q0.079 -6.6642 1.4384 -6.6642 Q1.9853 -6.6642 2.4618 -6.9064 Q2.9384 -7.1486 3.2822 -7.5939 Q3.6259 -8.0392 3.7509 -8.5392 Q3.7665 -8.6017 3.8134 -8.6486 Q3.8603 -8.6954 3.9228 -8.6954 L4.079 -8.6954 Q4.2665 -8.6954 4.2665 -8.4611 Q4.0165 -7.4454 3.1728 -6.7892 Q2.329 -6.1329 1.2822 -6.1329 ZM-1.1085 -10.9454 L3.0009 -10.9454 Q3.0009 -11.6173 2.8056 -12.3126 Q2.6103 -13.0079 2.1728 -13.4689 Q1.7353 -13.9298 1.0322 -13.9298 Q0.0009 -13.9298 -0.5538 -12.9767 Q-1.1085 -12.0236 -1.1085 -10.9454 Z"
      /><path style="stroke:none;" d="M5.1512 -6.3361 L5.1512 -6.9767 Q5.7762 -6.9767 6.1669 -7.0704 Q6.5575 -7.1642 6.5575 -7.5392 L6.5575 -12.4611 Q6.5575 -12.9298 6.4169 -13.1486 Q6.2762 -13.3673 6.0028 -13.4142 Q5.7294 -13.4611 5.1512 -13.4611 L5.1512 -14.1017 L7.7606 -14.2892 L7.7606 -12.5392 Q8.12 -13.3048 8.8309 -13.797 Q9.5419 -14.2892 10.37 -14.2892 Q11.62 -14.2892 12.2528 -13.6954 Q12.8856 -13.1017 12.8856 -11.8673 L12.8856 -7.5392 Q12.8856 -7.1642 13.2762 -7.0704 Q13.6669 -6.9767 14.2919 -6.9767 L14.2919 -6.3361 L10.1669 -6.3361 L10.1669 -6.9767 Q10.7762 -6.9767 11.1747 -7.0704 Q11.5731 -7.1642 11.5731 -7.5392 L11.5731 -11.8048 Q11.5731 -12.6954 11.3153 -13.2579 Q11.0575 -13.8204 10.2762 -13.8204 Q9.2294 -13.8204 8.5575 -12.9845 Q7.8856 -12.1486 7.8856 -11.0861 L7.8856 -7.5392 Q7.8856 -7.1642 8.2762 -7.0704 Q8.6669 -6.9767 9.2762 -6.9767 L9.2762 -6.3361 L5.1512 -6.3361 Z"
      /><path style="stroke:none;" d="M18.8822 -6.1329 Q17.7884 -6.1329 16.9056 -6.7033 Q16.0228 -7.2736 15.5072 -8.2189 Q14.9916 -9.1642 14.9916 -10.2267 Q14.9916 -11.2892 15.4994 -12.2658 Q16.0072 -13.2423 16.8978 -13.8204 Q17.7884 -14.3986 18.8822 -14.3986 Q19.9291 -14.3986 20.7962 -13.9923 Q21.6634 -13.5861 21.6634 -12.6329 Q21.6634 -12.2892 21.4134 -12.0314 Q21.1634 -11.7736 20.8041 -11.7736 Q20.4447 -11.7736 20.1947 -12.0314 Q19.9447 -12.2892 19.9447 -12.6329 Q19.9447 -12.9611 20.1478 -13.1876 Q20.3509 -13.4142 20.6478 -13.4767 Q20.0228 -13.8829 18.8978 -13.8829 Q18.0384 -13.8829 17.5072 -13.3126 Q16.9759 -12.7423 16.765 -11.8986 Q16.5541 -11.0548 16.5541 -10.2267 Q16.5541 -9.3517 16.8197 -8.5392 Q17.0853 -7.7267 17.6556 -7.1954 Q18.2259 -6.6642 19.1009 -6.6642 Q19.9603 -6.6642 20.5541 -7.1876 Q21.1478 -7.7111 21.3666 -8.5548 Q21.3666 -8.6642 21.5072 -8.6642 L21.7259 -8.6642 Q21.7884 -8.6642 21.8275 -8.6095 Q21.8666 -8.5548 21.8666 -8.4923 L21.8666 -8.4454 Q21.6009 -7.3829 20.7884 -6.7579 Q19.9759 -6.1329 18.8822 -6.1329 Z"
      /><path style="stroke:none;" d="M23.4544 -3.3829 Q23.7982 -3.1173 24.22 -3.1173 Q25.345 -3.1173 26.0638 -4.8204 L26.6888 -6.3361 L23.9857 -12.9454 Q23.8138 -13.2736 23.4778 -13.3673 Q23.1419 -13.4611 22.5638 -13.4611 L22.5638 -14.1017 L26.345 -14.1017 L26.345 -13.4611 Q25.345 -13.4611 25.345 -13.0392 Q25.345 -12.9611 25.3607 -12.9298 L27.3763 -8.0079 L29.1732 -12.4298 Q29.22 -12.5704 29.22 -12.7423 Q29.22 -12.9611 29.1028 -13.1251 Q28.9857 -13.2892 28.7982 -13.3751 Q28.6107 -13.4611 28.3763 -13.4611 L28.3763 -14.1017 L31.3607 -14.1017 L31.3607 -13.4611 Q30.8138 -13.4611 30.3919 -13.2111 Q29.97 -12.9611 29.7513 -12.4611 L26.6263 -4.8204 Q26.3919 -4.2423 26.056 -3.7579 Q25.72 -3.2736 25.2513 -2.9611 Q24.7825 -2.6486 24.22 -2.6486 Q23.5638 -2.6486 23.0638 -3.0783 Q22.5638 -3.5079 22.5638 -4.1486 Q22.5638 -4.4923 22.7903 -4.7189 Q23.0169 -4.9454 23.3607 -4.9454 Q23.5794 -4.9454 23.7591 -4.8439 Q23.9388 -4.7423 24.0403 -4.5704 Q24.1419 -4.3986 24.1419 -4.1486 Q24.1419 -3.8673 23.9466 -3.6408 Q23.7513 -3.4142 23.4544 -3.3829 Z"
      /><path style="stroke:none;" d="M42.9537 -1.8673 Q41.9537 -2.6642 41.2272 -3.6876 Q40.5006 -4.7111 40.0397 -5.8673 Q39.5787 -7.0236 39.3522 -8.2892 Q39.1256 -9.5548 39.1256 -10.8361 Q39.1256 -12.1329 39.3522 -13.3986 Q39.5787 -14.6642 40.0475 -15.8283 Q40.5162 -16.9923 41.2506 -18.0158 Q41.985 -19.0392 42.9537 -19.8048 Q42.9537 -19.8361 43.0475 -19.8361 L43.2194 -19.8361 Q43.2662 -19.8361 43.3131 -19.7892 Q43.36 -19.7423 43.36 -19.6798 Q43.36 -19.6017 43.3131 -19.5704 Q42.4381 -18.6954 41.8522 -17.7111 Q41.2662 -16.7267 40.9147 -15.6173 Q40.5631 -14.5079 40.3991 -13.3204 Q40.235 -12.1329 40.235 -10.8361 Q40.235 -5.1173 43.2975 -2.1486 Q43.36 -2.0861 43.36 -1.9923 Q43.36 -1.9454 43.3053 -1.8908 Q43.2506 -1.8361 43.2194 -1.8361 L43.0475 -1.8361 Q42.9537 -1.8361 42.9537 -1.8673 Z"
      /><path style="stroke:none;" d="M46.0951 -6.3361 L46.0951 -16.9923 Q46.0951 -17.4767 45.9466 -17.6876 Q45.7982 -17.8986 45.5248 -17.9454 Q45.2513 -17.9923 44.6888 -17.9923 L44.6888 -18.6329 L47.3451 -18.8204 L47.3451 -13.1954 Q47.642 -13.5236 48.0482 -13.7736 Q48.4545 -14.0236 48.9076 -14.1564 Q49.3607 -14.2892 49.8295 -14.2892 Q50.642 -14.2892 51.3373 -13.9611 Q52.0326 -13.6329 52.5404 -13.0626 Q53.0482 -12.4923 53.3295 -11.7501 Q53.6107 -11.0079 53.6107 -10.2267 Q53.6107 -9.1329 53.0795 -8.1954 Q52.5482 -7.2579 51.6341 -6.6954 Q50.7201 -6.1329 49.6107 -6.1329 Q48.9388 -6.1329 48.2904 -6.4845 Q47.642 -6.8361 47.2201 -7.4142 L46.6107 -6.3361 L46.0951 -6.3361 ZM47.4076 -8.1017 Q47.7045 -7.4454 48.267 -7.0236 Q48.8295 -6.6017 49.517 -6.6017 Q50.4388 -6.6017 51.017 -7.1408 Q51.5951 -7.6798 51.8216 -8.5001 Q52.0482 -9.3204 52.0482 -10.2267 Q52.0482 -11.7423 51.6576 -12.5392 Q51.4857 -12.8829 51.181 -13.1798 Q50.8763 -13.4767 50.5013 -13.6486 Q50.1263 -13.8204 49.7201 -13.8204 Q48.9857 -13.8204 48.3763 -13.4376 Q47.767 -13.0548 47.4076 -12.4142 L47.4076 -8.1017 Z"
      /><path style="stroke:none;" d="M54.4666 -2.8517 L54.4666 -3.4767 Q55.076 -3.4767 55.4744 -3.5783 Q55.8729 -3.6798 55.8729 -4.0548 L55.8729 -12.7267 Q55.8729 -13.2111 55.5213 -13.3361 Q55.1698 -13.4611 54.4666 -13.4611 L54.4666 -14.1017 L57.1229 -14.2892 L57.1229 -13.1798 Q57.6229 -13.7267 58.2791 -14.0079 Q58.9354 -14.2892 59.6698 -14.2892 Q60.7323 -14.2892 61.5838 -13.7111 Q62.4354 -13.1329 62.9119 -12.2033 Q63.3885 -11.2736 63.3885 -10.2267 Q63.3885 -9.1329 62.8573 -8.1954 Q62.326 -7.2579 61.4119 -6.6954 Q60.4979 -6.1329 59.3885 -6.1329 Q58.0916 -6.1329 57.1854 -7.1954 L57.1854 -4.0548 Q57.1854 -3.6798 57.5838 -3.5783 Q57.9823 -3.4767 58.5916 -3.4767 L58.5916 -2.8517 L54.4666 -2.8517 ZM57.1854 -8.0861 Q57.4979 -7.4454 58.0604 -7.0236 Q58.6229 -6.6017 59.2948 -6.6017 Q59.9198 -6.6017 60.3963 -6.9376 Q60.8729 -7.2736 61.201 -7.8361 Q61.5291 -8.3986 61.6776 -9.0236 Q61.826 -9.6486 61.826 -10.2267 Q61.826 -10.9454 61.5682 -11.7814 Q61.3104 -12.6173 60.7791 -13.1954 Q60.2479 -13.7736 59.4979 -13.7736 Q58.7635 -13.7736 58.1541 -13.3986 Q57.5448 -13.0236 57.1854 -12.3829 L57.1854 -8.0861 Z"
      /><path style="stroke:none;" d="M64.3694 -6.2892 L64.3694 -9.2267 Q64.3694 -9.3673 64.5257 -9.3673 L64.7444 -9.3673 Q64.8538 -9.3673 64.8851 -9.2267 Q65.4007 -6.6017 67.3226 -6.6017 Q68.1663 -6.6017 68.7444 -6.9923 Q69.3226 -7.3829 69.3226 -8.1954 Q69.3226 -8.7736 68.8773 -9.1798 Q68.4319 -9.5861 67.8069 -9.7423 L66.6038 -9.9767 Q65.9944 -10.1017 65.5023 -10.3751 Q65.0101 -10.6486 64.6898 -11.1017 Q64.3694 -11.5548 64.3694 -12.1486 Q64.3694 -12.9454 64.7913 -13.4533 Q65.2132 -13.9611 65.8773 -14.1798 Q66.5413 -14.3986 67.3226 -14.3986 Q68.2444 -14.3986 68.9319 -13.9142 L69.4476 -14.3673 Q69.4476 -14.3986 69.5257 -14.3986 L69.6663 -14.3986 Q69.7132 -14.3986 69.7601 -14.3517 Q69.8069 -14.3048 69.8069 -14.2579 L69.8069 -11.8986 Q69.8069 -11.7267 69.6663 -11.7267 L69.4476 -11.7267 Q69.2913 -11.7267 69.2913 -11.8986 Q69.2913 -12.8361 68.7679 -13.4064 Q68.2444 -13.9767 67.3069 -13.9767 Q66.4944 -13.9767 65.9007 -13.6798 Q65.3069 -13.3829 65.3069 -12.6486 Q65.3069 -12.1486 65.7288 -11.8283 Q66.1507 -11.5079 66.7288 -11.3673 L67.9476 -11.1486 Q68.5726 -11.0079 69.1038 -10.672 Q69.6351 -10.3361 69.9476 -9.8283 Q70.2601 -9.3204 70.2601 -8.6798 Q70.2601 -8.0236 70.0335 -7.547 Q69.8069 -7.0704 69.4085 -6.7501 Q69.0101 -6.4298 68.4632 -6.2814 Q67.9163 -6.1329 67.3226 -6.1329 Q66.1976 -6.1329 65.4007 -6.8829 L64.7288 -6.1798 Q64.7288 -6.1329 64.6351 -6.1329 L64.5257 -6.1329 Q64.3694 -6.1329 64.3694 -6.2892 Z"
      /><path style="stroke:none;" d="M71.7335 -2.1954 Q71.7335 -2.2423 71.7492 -2.2736 L77.9992 -19.6173 Q78.046 -19.7267 78.132 -19.7814 Q78.2179 -19.8361 78.3273 -19.8361 Q78.4835 -19.8361 78.5851 -19.7423 Q78.6867 -19.6486 78.6867 -19.4767 L78.6867 -19.3986 L72.4367 -2.0548 Q72.3273 -1.8361 72.0929 -1.8361 Q71.9367 -1.8361 71.8351 -1.9376 Q71.7335 -2.0392 71.7335 -2.1954 Z"
      /><path style="stroke:none;" d="M80.0648 -6.3361 L80.0648 -6.9767 Q81.9242 -6.9767 81.9242 -7.5392 L81.9242 -17.4298 Q81.9242 -17.9923 80.0648 -17.9923 L80.0648 -18.6329 L85.4554 -18.6329 L85.4554 -17.9923 Q83.6117 -17.9923 83.6117 -17.4298 L83.6117 -13.0548 L88.9086 -13.0548 L88.9086 -17.4298 Q88.9086 -17.9923 87.0648 -17.9923 L87.0648 -18.6329 L92.4398 -18.6329 L92.4398 -17.9923 Q90.5961 -17.9923 90.5961 -17.4298 L90.5961 -7.5392 Q90.5961 -6.9767 92.4398 -6.9767 L92.4398 -6.3361 L87.0648 -6.3361 L87.0648 -6.9767 Q88.9086 -6.9767 88.9086 -7.5392 L88.9086 -12.4142 L83.6117 -12.4142 L83.6117 -7.5392 Q83.6117 -6.9767 85.4554 -6.9767 L85.4554 -6.3361 L80.0648 -6.3361 Z"
      /><path style="stroke:none;" d="M93.4211 -6.3361 Q93.218 -6.3361 93.218 -6.5392 L93.218 -6.6798 Q93.218 -6.7423 93.2648 -6.8048 L98.2961 -13.6173 L96.6867 -13.6173 Q95.9211 -13.6173 95.4211 -13.5236 Q94.9211 -13.4298 94.6008 -13.1642 Q94.2805 -12.8986 94.1398 -12.422 Q93.9992 -11.9454 93.9992 -11.1329 L93.468 -11.1329 L93.6711 -14.1017 L99.7023 -14.1017 Q99.7805 -14.1017 99.843 -14.0392 Q99.9055 -13.9767 99.9055 -13.8986 L99.9055 -13.7892 Q99.9055 -13.7423 99.8586 -13.6642 L94.8273 -6.8517 L96.5461 -6.8517 Q97.3273 -6.8517 97.8508 -6.9533 Q98.3742 -7.0548 98.7492 -7.4142 Q99.093 -7.7579 99.218 -8.3361 Q99.343 -8.9142 99.4211 -9.7736 L99.9367 -9.7736 L99.6242 -6.3361 L93.4211 -6.3361 Z"
      /><path style="stroke:none;" d="M101.7121 -1.8361 Q101.5558 -1.8361 101.5558 -1.9923 Q101.5558 -2.0704 101.5871 -2.1017 Q104.6652 -5.1173 104.6652 -10.8361 Q104.6652 -16.5548 101.6183 -19.5236 Q101.5558 -19.5704 101.5558 -19.6798 Q101.5558 -19.7423 101.6027 -19.7892 Q101.6496 -19.8361 101.7121 -19.8361 L101.8839 -19.8361 Q101.9308 -19.8361 101.9621 -19.8048 Q103.2589 -18.7892 104.1183 -17.3283 Q104.9777 -15.8673 105.3761 -14.2111 Q105.7746 -12.5548 105.7746 -10.8361 Q105.7746 -9.5548 105.5636 -8.3204 Q105.3527 -7.0861 104.8839 -5.8908 Q104.4152 -4.6954 103.6886 -3.6798 Q102.9621 -2.6642 101.9621 -1.8673 Q101.9308 -1.8361 101.8839 -1.8361 L101.7121 -1.8361 Z"
    /></g
    ><g style="stroke-linecap:butt; text-rendering:geometricPrecision; color-rendering:optimizeQuality; image-rendering:optimizeQuality; stroke-linejoin:round; color-interpolation:linearRGB; stroke-width:1.3333;"
    ><path d="M74 371.2708 L147.6667 365.5167 L221.3333 338.7081 L295 285.0208 L368.6667 216.1964 L442.3333 144.8979 L516 70.7574" style="fill:none; fill-rule:evenodd;"
      /><path d="M0 -4 L0 4 M-4 0 L4 0 M-2.8284 -2.8284 L2.8284 2.8284 M-2.8284 2.8284 L2.8284 -2.8284" style="fill:none; stroke-linejoin:miter;" transform="translate(74,371.2708)"
      /><path d="M0 -4 L0 4 M-4 0 L4 0 M-2.8284 -2.8284 L2.8284 2.8284 M-2.8284 2.8284 L2.8284 -2.8284" style="fill:none; stroke-linejoin:miter;" transform="translate(147.6667,365.5167)"
      /><path d="M0 -4 L0 4 M-4 0 L4 0 M-2.8284 -2.8284 L2.8284 2.8284 M-2.8284 2.8284 L2.8284 -2.8284" style="fill:none; stroke-linejoin:miter;" transform="translate(221.3333,338.7081)"
      /><path d="M0 -4 L0 4 M-4 0 L4 0 M-2.8284 -2.8284 L2.8284 2.8284 M-2.8284 2.8284 L2.8284 -2.8284" style="fill:none; stroke-linejoin:miter;" transform="translate(295,285.0208)"
      /><path d="M0 -4 L0 4 M-4 0 L4 0 M-2.8284 -2.8284 L2.8284 2.8284 M-2.8284 2.8284 L2.8284 -2.8284" style="fill:none; stroke-linejoin:miter;" transform="translate(368.6667,216.1964)"
      /><path d="M0 -4 L0 4 M-4 0 L4 0 M-2.8284 -2.8284 L2.8284 2.8284 M-2.8284 2.8284 L2.8284 -2.8284" style="fill:none; stroke-linejoin:miter;" transform="translate(442.3333,144.8979)"
      /><path d="M0 -4 L0 4 M-4 0 L4 0 M-2.8284 -2.8284 L2.8284 2.8284 M-2.8284 2.8284 L2.8284 -2.8284" style="fill:none; stroke-linejoin:miter;" transform="translate(516,70.7574)"
    /></g
  ></g
></svg
>
