<?xml version="1.0" encoding="UTF-8" standalone="no"?>
<svg
   xmlns:dc="http://purl.org/dc/elements/1.1/"
   xmlns:cc="http://creativecommons.org/ns#"
   xmlns:rdf="http://www.w3.org/1999/02/22-rdf-syntax-ns#"
   xmlns:svg="http://www.w3.org/2000/svg"
   xmlns="http://www.w3.org/2000/svg"
   xmlns:xlink="http://www.w3.org/1999/xlink"
   id="svg1663"
   version="1.2"
   viewBox="0 0 619.51 96.94"
   height="96.94pt"
   width="619.51pt">
  <metadata
     id="metadata1667">
    <rdf:RDF>
      <cc:Work
         rdf:about="">
        <dc:format>image/svg+xml</dc:format>
        <dc:type
           rdf:resource="http://purl.org/dc/dcmitype/StillImage" />
        <dc:title></dc:title>
      </cc:Work>
    </rdf:RDF>
  </metadata>
  <defs
     id="defs1244">
    <g
       id="g1242">
      <symbol
         id="glyph0-0"
         overflow="visible">
        <path
           id="path1173"
           d=""
           style="stroke:none;" />
      </symbol>
      <symbol
         id="glyph0-1"
         overflow="visible">
        <path
           id="path1176"
           d="M 3.96875 -6.9375 C 3.921875 -7.0625 3.890625 -7.140625 3.734375 -7.140625 C 3.578125 -7.140625 3.546875 -7.078125 3.5 -6.9375 L 1.4375 -0.984375 C 1.25 -0.46875 0.859375 -0.3125 0.3125 -0.3125 L 0.3125 0 C 0.546875 -0.015625 0.984375 -0.03125 1.328125 -0.03125 C 1.640625 -0.03125 2.15625 -0.015625 2.484375 0 L 2.484375 -0.3125 C 1.984375 -0.3125 1.734375 -0.5625 1.734375 -0.8125 C 1.734375 -0.84375 1.75 -0.953125 1.75 -0.96875 L 2.21875 -2.265625 L 4.671875 -2.265625 L 5.203125 -0.75 C 5.21875 -0.703125 5.234375 -0.640625 5.234375 -0.609375 C 5.234375 -0.3125 4.671875 -0.3125 4.40625 -0.3125 L 4.40625 0 C 4.765625 -0.03125 5.46875 -0.03125 5.84375 -0.03125 C 6.265625 -0.03125 6.734375 -0.015625 7.140625 0 L 7.140625 -0.3125 L 6.96875 -0.3125 C 6.375 -0.3125 6.234375 -0.375 6.125 -0.703125 Z M 3.4375 -5.828125 L 4.5625 -2.578125 L 2.328125 -2.578125 Z M 3.4375 -5.828125 "
           style="stroke:none;" />
      </symbol>
      <symbol
         id="glyph0-2"
         overflow="visible">
        <path
           id="path1179"
           d="M 1.09375 -3.421875 L 1.09375 -0.75 C 1.09375 -0.3125 0.984375 -0.3125 0.3125 -0.3125 L 0.3125 0 C 0.671875 -0.015625 1.171875 -0.03125 1.453125 -0.03125 C 1.703125 -0.03125 2.21875 -0.015625 2.5625 0 L 2.5625 -0.3125 C 1.890625 -0.3125 1.78125 -0.3125 1.78125 -0.75 L 1.78125 -2.59375 C 1.78125 -3.625 2.5 -4.1875 3.125 -4.1875 C 3.765625 -4.1875 3.875 -3.65625 3.875 -3.078125 L 3.875 -0.75 C 3.875 -0.3125 3.765625 -0.3125 3.09375 -0.3125 L 3.09375 0 C 3.4375 -0.015625 3.953125 -0.03125 4.21875 -0.03125 C 4.46875 -0.03125 5 -0.015625 5.328125 0 L 5.328125 -0.3125 C 4.8125 -0.3125 4.5625 -0.3125 4.5625 -0.609375 L 4.5625 -2.515625 C 4.5625 -3.375 4.5625 -3.671875 4.25 -4.03125 C 4.109375 -4.203125 3.78125 -4.40625 3.203125 -4.40625 C 2.46875 -4.40625 2 -3.984375 1.71875 -3.359375 L 1.71875 -4.40625 L 0.3125 -4.296875 L 0.3125 -3.984375 C 1.015625 -3.984375 1.09375 -3.921875 1.09375 -3.421875 Z M 1.09375 -3.421875 "
           style="stroke:none;" />
      </symbol>
      <symbol
         id="glyph0-3"
         overflow="visible">
        <path
           id="path1182"
           d="M 3.3125 -0.75 C 3.359375 -0.359375 3.625 0.0625 4.09375 0.0625 C 4.3125 0.0625 4.921875 -0.078125 4.921875 -0.890625 L 4.921875 -1.453125 L 4.671875 -1.453125 L 4.671875 -0.890625 C 4.671875 -0.3125 4.421875 -0.25 4.3125 -0.25 C 3.984375 -0.25 3.9375 -0.703125 3.9375 -0.75 L 3.9375 -2.734375 C 3.9375 -3.15625 3.9375 -3.546875 3.578125 -3.921875 C 3.1875 -4.3125 2.6875 -4.46875 2.21875 -4.46875 C 1.390625 -4.46875 0.703125 -4 0.703125 -3.34375 C 0.703125 -3.046875 0.90625 -2.875 1.171875 -2.875 C 1.453125 -2.875 1.625 -3.078125 1.625 -3.328125 C 1.625 -3.453125 1.578125 -3.78125 1.109375 -3.78125 C 1.390625 -4.140625 1.875 -4.25 2.1875 -4.25 C 2.6875 -4.25 3.25 -3.859375 3.25 -2.96875 L 3.25 -2.609375 C 2.734375 -2.578125 2.046875 -2.546875 1.421875 -2.25 C 0.671875 -1.90625 0.421875 -1.390625 0.421875 -0.953125 C 0.421875 -0.140625 1.390625 0.109375 2.015625 0.109375 C 2.671875 0.109375 3.125 -0.296875 3.3125 -0.75 Z M 3.25 -2.390625 L 3.25 -1.390625 C 3.25 -0.453125 2.53125 -0.109375 2.078125 -0.109375 C 1.59375 -0.109375 1.1875 -0.453125 1.1875 -0.953125 C 1.1875 -1.5 1.609375 -2.328125 3.25 -2.390625 Z M 3.25 -2.390625 "
           style="stroke:none;" />
      </symbol>
      <symbol
         id="glyph0-4"
         overflow="visible">
        <path
           id="path1185"
           d="M 1.765625 -6.921875 L 0.328125 -6.8125 L 0.328125 -6.5 C 1.03125 -6.5 1.109375 -6.4375 1.109375 -5.9375 L 1.109375 -0.75 C 1.109375 -0.3125 1 -0.3125 0.328125 -0.3125 L 0.328125 0 C 0.65625 -0.015625 1.1875 -0.03125 1.4375 -0.03125 C 1.6875 -0.03125 2.171875 -0.015625 2.546875 0 L 2.546875 -0.3125 C 1.875 -0.3125 1.765625 -0.3125 1.765625 -0.75 Z M 1.765625 -6.921875 "
           style="stroke:none;" />
      </symbol>
      <symbol
         id="glyph0-5"
         overflow="visible">
        <path
           id="path1188"
           d="M 4.6875 -2.140625 C 4.6875 -3.40625 3.703125 -4.46875 2.5 -4.46875 C 1.25 -4.46875 0.28125 -3.375 0.28125 -2.140625 C 0.28125 -0.84375 1.3125 0.109375 2.484375 0.109375 C 3.6875 0.109375 4.6875 -0.875 4.6875 -2.140625 Z M 2.5 -0.140625 C 2.0625 -0.140625 1.625 -0.34375 1.359375 -0.8125 C 1.109375 -1.25 1.109375 -1.859375 1.109375 -2.21875 C 1.109375 -2.609375 1.109375 -3.140625 1.34375 -3.578125 C 1.609375 -4.03125 2.078125 -4.25 2.484375 -4.25 C 2.921875 -4.25 3.34375 -4.03125 3.609375 -3.59375 C 3.875 -3.171875 3.875 -2.59375 3.875 -2.21875 C 3.875 -1.859375 3.875 -1.3125 3.65625 -0.875 C 3.421875 -0.421875 2.984375 -0.140625 2.5 -0.140625 Z M 2.5 -0.140625 "
           style="stroke:none;" />
      </symbol>
      <symbol
         id="glyph0-6"
         overflow="visible">
        <path
           id="path1191"
           d="M 2.21875 -1.71875 C 1.34375 -1.71875 1.34375 -2.71875 1.34375 -2.9375 C 1.34375 -3.203125 1.359375 -3.53125 1.5 -3.78125 C 1.578125 -3.890625 1.8125 -4.171875 2.21875 -4.171875 C 3.078125 -4.171875 3.078125 -3.1875 3.078125 -2.953125 C 3.078125 -2.6875 3.078125 -2.359375 2.921875 -2.109375 C 2.84375 -2 2.609375 -1.71875 2.21875 -1.71875 Z M 1.0625 -1.328125 C 1.0625 -1.359375 1.0625 -1.59375 1.21875 -1.796875 C 1.609375 -1.515625 2.03125 -1.484375 2.21875 -1.484375 C 3.140625 -1.484375 3.828125 -2.171875 3.828125 -2.9375 C 3.828125 -3.3125 3.671875 -3.671875 3.421875 -3.90625 C 3.78125 -4.25 4.140625 -4.296875 4.3125 -4.296875 C 4.34375 -4.296875 4.390625 -4.296875 4.421875 -4.28125 C 4.3125 -4.25 4.25 -4.140625 4.25 -4.015625 C 4.25 -3.84375 4.390625 -3.734375 4.546875 -3.734375 C 4.640625 -3.734375 4.828125 -3.796875 4.828125 -4.03125 C 4.828125 -4.203125 4.71875 -4.515625 4.328125 -4.515625 C 4.125 -4.515625 3.6875 -4.453125 3.265625 -4.046875 C 2.84375 -4.375 2.4375 -4.40625 2.21875 -4.40625 C 1.28125 -4.40625 0.59375 -3.71875 0.59375 -2.953125 C 0.59375 -2.515625 0.8125 -2.140625 1.0625 -1.921875 C 0.9375 -1.78125 0.75 -1.453125 0.75 -1.09375 C 0.75 -0.78125 0.890625 -0.40625 1.203125 -0.203125 C 0.59375 -0.046875 0.28125 0.390625 0.28125 0.78125 C 0.28125 1.5 1.265625 2.046875 2.484375 2.046875 C 3.65625 2.046875 4.6875 1.546875 4.6875 0.765625 C 4.6875 0.421875 4.5625 -0.09375 4.046875 -0.375 C 3.515625 -0.640625 2.9375 -0.640625 2.328125 -0.640625 C 2.078125 -0.640625 1.65625 -0.640625 1.578125 -0.65625 C 1.265625 -0.703125 1.0625 -1 1.0625 -1.328125 Z M 2.5 1.828125 C 1.484375 1.828125 0.796875 1.3125 0.796875 0.78125 C 0.796875 0.328125 1.171875 -0.046875 1.609375 -0.0625 L 2.203125 -0.0625 C 3.0625 -0.0625 4.171875 -0.0625 4.171875 0.78125 C 4.171875 1.328125 3.46875 1.828125 2.5 1.828125 Z M 2.5 1.828125 "
           style="stroke:none;" />
      </symbol>
      <symbol
         id="glyph0-7"
         overflow="visible">
        <path
           id="path1194"
           d="M 2.265625 -3.15625 L 3.953125 -3.15625 C 5.140625 -3.15625 6.21875 -3.953125 6.21875 -4.953125 C 6.21875 -5.9375 5.234375 -6.8125 3.875 -6.8125 L 0.34375 -6.8125 L 0.34375 -6.5 L 0.59375 -6.5 C 1.359375 -6.5 1.375 -6.390625 1.375 -6.03125 L 1.375 -0.78125 C 1.375 -0.421875 1.359375 -0.3125 0.59375 -0.3125 L 0.34375 -0.3125 L 0.34375 0 C 0.703125 -0.03125 1.4375 -0.03125 1.8125 -0.03125 C 2.1875 -0.03125 2.9375 -0.03125 3.296875 0 L 3.296875 -0.3125 L 3.046875 -0.3125 C 2.28125 -0.3125 2.265625 -0.421875 2.265625 -0.78125 Z M 2.234375 -3.40625 L 2.234375 -6.09375 C 2.234375 -6.4375 2.25 -6.5 2.71875 -6.5 L 3.609375 -6.5 C 5.1875 -6.5 5.1875 -5.4375 5.1875 -4.953125 C 5.1875 -4.484375 5.1875 -3.40625 3.609375 -3.40625 Z M 2.234375 -3.40625 "
           style="stroke:none;" />
      </symbol>
      <symbol
         id="glyph0-8"
         overflow="visible">
        <path
           id="path1197"
           d="M 1.671875 -3.3125 L 1.671875 -4.40625 L 0.28125 -4.296875 L 0.28125 -3.984375 C 0.984375 -3.984375 1.0625 -3.921875 1.0625 -3.421875 L 1.0625 -0.75 C 1.0625 -0.3125 0.953125 -0.3125 0.28125 -0.3125 L 0.28125 0 C 0.671875 -0.015625 1.140625 -0.03125 1.421875 -0.03125 C 1.8125 -0.03125 2.28125 -0.03125 2.6875 0 L 2.6875 -0.3125 L 2.46875 -0.3125 C 1.734375 -0.3125 1.71875 -0.421875 1.71875 -0.78125 L 1.71875 -2.3125 C 1.71875 -3.296875 2.140625 -4.1875 2.890625 -4.1875 C 2.953125 -4.1875 2.984375 -4.1875 3 -4.171875 C 2.96875 -4.171875 2.765625 -4.046875 2.765625 -3.78125 C 2.765625 -3.515625 2.984375 -3.359375 3.203125 -3.359375 C 3.375 -3.359375 3.625 -3.484375 3.625 -3.796875 C 3.625 -4.109375 3.3125 -4.40625 2.890625 -4.40625 C 2.15625 -4.40625 1.796875 -3.734375 1.671875 -3.3125 Z M 1.671875 -3.3125 "
           style="stroke:none;" />
      </symbol>
      <symbol
         id="glyph0-9"
         overflow="visible">
        <path
           id="path1200"
           d="M 1.109375 -2.515625 C 1.171875 -4 2.015625 -4.25 2.359375 -4.25 C 3.375 -4.25 3.484375 -2.90625 3.484375 -2.515625 Z M 1.109375 -2.296875 L 3.890625 -2.296875 C 4.109375 -2.296875 4.140625 -2.296875 4.140625 -2.515625 C 4.140625 -3.5 3.59375 -4.46875 2.359375 -4.46875 C 1.203125 -4.46875 0.28125 -3.4375 0.28125 -2.1875 C 0.28125 -0.859375 1.328125 0.109375 2.46875 0.109375 C 3.6875 0.109375 4.140625 -1 4.140625 -1.1875 C 4.140625 -1.28125 4.0625 -1.3125 4 -1.3125 C 3.921875 -1.3125 3.890625 -1.25 3.875 -1.171875 C 3.53125 -0.140625 2.625 -0.140625 2.53125 -0.140625 C 2.03125 -0.140625 1.640625 -0.4375 1.40625 -0.8125 C 1.109375 -1.28125 1.109375 -1.9375 1.109375 -2.296875 Z M 1.109375 -2.296875 "
           style="stroke:none;" />
      </symbol>
      <symbol
         id="glyph0-10"
         overflow="visible">
        <path
           id="path1203"
           d="M 1.171875 -2.171875 C 1.171875 -3.796875 1.984375 -4.21875 2.515625 -4.21875 C 2.609375 -4.21875 3.234375 -4.203125 3.578125 -3.84375 C 3.171875 -3.8125 3.109375 -3.515625 3.109375 -3.390625 C 3.109375 -3.125 3.296875 -2.9375 3.5625 -2.9375 C 3.828125 -2.9375 4.03125 -3.09375 4.03125 -3.40625 C 4.03125 -4.078125 3.265625 -4.46875 2.5 -4.46875 C 1.25 -4.46875 0.34375 -3.390625 0.34375 -2.15625 C 0.34375 -0.875 1.328125 0.109375 2.484375 0.109375 C 3.8125 0.109375 4.140625 -1.09375 4.140625 -1.1875 C 4.140625 -1.28125 4.03125 -1.28125 4 -1.28125 C 3.921875 -1.28125 3.890625 -1.25 3.875 -1.1875 C 3.59375 -0.265625 2.9375 -0.140625 2.578125 -0.140625 C 2.046875 -0.140625 1.171875 -0.5625 1.171875 -2.171875 Z M 1.171875 -2.171875 "
           style="stroke:none;" />
      </symbol>
      <symbol
         id="glyph0-11"
         overflow="visible">
        <path
           id="path1206"
           d="M 3.78125 -0.546875 L 3.78125 0.109375 L 5.25 0 L 5.25 -0.3125 C 4.5625 -0.3125 4.46875 -0.375 4.46875 -0.875 L 4.46875 -6.921875 L 3.046875 -6.8125 L 3.046875 -6.5 C 3.734375 -6.5 3.8125 -6.4375 3.8125 -5.9375 L 3.8125 -3.78125 C 3.53125 -4.140625 3.09375 -4.40625 2.5625 -4.40625 C 1.390625 -4.40625 0.34375 -3.421875 0.34375 -2.140625 C 0.34375 -0.875 1.3125 0.109375 2.453125 0.109375 C 3.09375 0.109375 3.53125 -0.234375 3.78125 -0.546875 Z M 3.78125 -3.21875 L 3.78125 -1.171875 C 3.78125 -1 3.78125 -0.984375 3.671875 -0.8125 C 3.375 -0.328125 2.9375 -0.109375 2.5 -0.109375 C 2.046875 -0.109375 1.6875 -0.375 1.453125 -0.75 C 1.203125 -1.15625 1.171875 -1.71875 1.171875 -2.140625 C 1.171875 -2.5 1.1875 -3.09375 1.46875 -3.546875 C 1.6875 -3.859375 2.0625 -4.1875 2.609375 -4.1875 C 2.953125 -4.1875 3.375 -4.03125 3.671875 -3.59375 C 3.78125 -3.421875 3.78125 -3.40625 3.78125 -3.21875 Z M 3.78125 -3.21875 "
           style="stroke:none;" />
      </symbol>
      <symbol
         id="glyph0-12"
         overflow="visible">
        <path
           id="path1209"
           d="M 0.34375 -6.8125 L 0.34375 -6.5 L 0.59375 -6.5 C 1.359375 -6.5 1.375 -6.390625 1.375 -6.03125 L 1.375 -0.78125 C 1.375 -0.421875 1.359375 -0.3125 0.59375 -0.3125 L 0.34375 -0.3125 L 0.34375 0 L 4 0 C 5.671875 0 7.046875 -1.46875 7.046875 -3.34375 C 7.046875 -5.25 5.703125 -6.8125 4 -6.8125 Z M 2.71875 -0.3125 C 2.25 -0.3125 2.234375 -0.375 2.234375 -0.703125 L 2.234375 -6.09375 C 2.234375 -6.4375 2.25 -6.5 2.71875 -6.5 L 3.71875 -6.5 C 4.34375 -6.5 5.03125 -6.28125 5.53125 -5.578125 C 5.96875 -4.984375 6.046875 -4.125 6.046875 -3.34375 C 6.046875 -2.25 5.859375 -1.640625 5.5 -1.15625 C 5.296875 -0.890625 4.734375 -0.3125 3.734375 -0.3125 Z M 2.71875 -0.3125 "
           style="stroke:none;" />
      </symbol>
      <symbol
         id="glyph0-13"
         overflow="visible">
        <path
           id="path1212"
           d="M 1.765625 -4.40625 L 0.375 -4.296875 L 0.375 -3.984375 C 1.015625 -3.984375 1.109375 -3.921875 1.109375 -3.4375 L 1.109375 -0.75 C 1.109375 -0.3125 1 -0.3125 0.328125 -0.3125 L 0.328125 0 C 0.640625 -0.015625 1.1875 -0.03125 1.421875 -0.03125 C 1.78125 -0.03125 2.125 -0.015625 2.46875 0 L 2.46875 -0.3125 C 1.796875 -0.3125 1.765625 -0.359375 1.765625 -0.75 Z M 1.796875 -6.140625 C 1.796875 -6.453125 1.5625 -6.671875 1.28125 -6.671875 C 0.96875 -6.671875 0.75 -6.40625 0.75 -6.140625 C 0.75 -5.875 0.96875 -5.609375 1.28125 -5.609375 C 1.5625 -5.609375 1.796875 -5.828125 1.796875 -6.140625 Z M 1.796875 -6.140625 "
           style="stroke:none;" />
      </symbol>
      <symbol
         id="glyph0-14"
         overflow="visible">
        <path
           id="path1215"
           d="M 1.71875 -3.984375 L 3.15625 -3.984375 L 3.15625 -4.296875 L 1.71875 -4.296875 L 1.71875 -6.125 L 1.46875 -6.125 C 1.46875 -5.3125 1.171875 -4.25 0.1875 -4.203125 L 0.1875 -3.984375 L 1.03125 -3.984375 L 1.03125 -1.234375 C 1.03125 -0.015625 1.96875 0.109375 2.328125 0.109375 C 3.03125 0.109375 3.3125 -0.59375 3.3125 -1.234375 L 3.3125 -1.796875 L 3.0625 -1.796875 L 3.0625 -1.25 C 3.0625 -0.515625 2.765625 -0.140625 2.390625 -0.140625 C 1.71875 -0.140625 1.71875 -1.046875 1.71875 -1.21875 Z M 1.71875 -3.984375 "
           style="stroke:none;" />
      </symbol>
      <symbol
         id="glyph0-15"
         overflow="visible">
        <path
           id="path1218"
           d="M 2.234375 -3.515625 L 2.234375 -6.09375 C 2.234375 -6.328125 2.234375 -6.453125 2.453125 -6.484375 C 2.546875 -6.5 2.84375 -6.5 3.046875 -6.5 C 3.9375 -6.5 5.046875 -6.453125 5.046875 -5.015625 C 5.046875 -4.328125 4.8125 -3.515625 3.34375 -3.515625 Z M 4.34375 -3.390625 C 5.296875 -3.625 6.078125 -4.234375 6.078125 -5.015625 C 6.078125 -5.96875 4.9375 -6.8125 3.484375 -6.8125 L 0.34375 -6.8125 L 0.34375 -6.5 L 0.59375 -6.5 C 1.359375 -6.5 1.375 -6.390625 1.375 -6.03125 L 1.375 -0.78125 C 1.375 -0.421875 1.359375 -0.3125 0.59375 -0.3125 L 0.34375 -0.3125 L 0.34375 0 C 0.703125 -0.03125 1.421875 -0.03125 1.796875 -0.03125 C 2.1875 -0.03125 2.90625 -0.03125 3.265625 0 L 3.265625 -0.3125 L 3.015625 -0.3125 C 2.25 -0.3125 2.234375 -0.421875 2.234375 -0.78125 L 2.234375 -3.296875 L 3.375 -3.296875 C 3.53125 -3.296875 3.953125 -3.296875 4.3125 -2.953125 C 4.6875 -2.609375 4.6875 -2.296875 4.6875 -1.625 C 4.6875 -0.984375 4.6875 -0.578125 5.09375 -0.203125 C 5.5 0.15625 6.046875 0.21875 6.34375 0.21875 C 7.125 0.21875 7.296875 -0.59375 7.296875 -0.875 C 7.296875 -0.9375 7.296875 -1.046875 7.171875 -1.046875 C 7.0625 -1.046875 7.0625 -0.953125 7.046875 -0.890625 C 6.984375 -0.171875 6.640625 0 6.390625 0 C 5.90625 0 5.828125 -0.515625 5.6875 -1.4375 L 5.546875 -2.234375 C 5.375 -2.875 4.890625 -3.203125 4.34375 -3.390625 Z M 4.34375 -3.390625 "
           style="stroke:none;" />
      </symbol>
      <symbol
         id="glyph0-16"
         overflow="visible">
        <path
           id="path1221"
           d="M 5.796875 -6.78125 L 0.328125 -6.78125 L 0.328125 -6.46875 L 0.5625 -6.46875 C 1.328125 -6.46875 1.359375 -6.359375 1.359375 -6 L 1.359375 -0.78125 C 1.359375 -0.421875 1.328125 -0.3125 0.5625 -0.3125 L 0.328125 -0.3125 L 0.328125 0 C 0.671875 -0.03125 1.453125 -0.03125 1.84375 -0.03125 C 2.25 -0.03125 3.15625 -0.03125 3.515625 0 L 3.515625 -0.3125 L 3.1875 -0.3125 C 2.25 -0.3125 2.25 -0.4375 2.25 -0.78125 L 2.25 -3.234375 L 3.09375 -3.234375 C 4.0625 -3.234375 4.15625 -2.921875 4.15625 -2.078125 L 4.40625 -2.078125 L 4.40625 -4.71875 L 4.15625 -4.71875 C 4.15625 -3.875 4.0625 -3.546875 3.09375 -3.546875 L 2.25 -3.546875 L 2.25 -6.078125 C 2.25 -6.40625 2.265625 -6.46875 2.734375 -6.46875 L 3.921875 -6.46875 C 5.421875 -6.46875 5.671875 -5.90625 5.828125 -4.53125 L 6.078125 -4.53125 Z M 5.796875 -6.78125 "
           style="stroke:none;" />
      </symbol>
      <symbol
         id="glyph0-17"
         overflow="visible">
        <path
           id="path1224"
           d="M 0.5625 -3.40625 C 0.5625 -1.34375 2.171875 0.21875 4.03125 0.21875 C 5.65625 0.21875 6.625 -1.171875 6.625 -2.328125 C 6.625 -2.421875 6.625 -2.5 6.5 -2.5 C 6.390625 -2.5 6.390625 -2.4375 6.375 -2.328125 C 6.296875 -0.90625 5.234375 -0.09375 4.140625 -0.09375 C 3.53125 -0.09375 1.578125 -0.421875 1.578125 -3.40625 C 1.578125 -6.375 3.53125 -6.71875 4.140625 -6.71875 C 5.21875 -6.71875 6.109375 -5.8125 6.3125 -4.359375 C 6.328125 -4.21875 6.328125 -4.1875 6.46875 -4.1875 C 6.625 -4.1875 6.625 -4.21875 6.625 -4.421875 L 6.625 -6.78125 C 6.625 -6.953125 6.625 -7.03125 6.515625 -7.03125 C 6.484375 -7.03125 6.4375 -7.03125 6.359375 -6.90625 L 5.859375 -6.171875 C 5.5 -6.53125 4.984375 -7.03125 4.03125 -7.03125 C 2.15625 -7.03125 0.5625 -5.4375 0.5625 -3.40625 Z M 0.5625 -3.40625 "
           style="stroke:none;" />
      </symbol>
      <symbol
         id="glyph0-18"
         overflow="visible">
        <path
           id="path1227"
           d="M 1.09375 -3.421875 L 1.09375 -0.75 C 1.09375 -0.3125 0.984375 -0.3125 0.3125 -0.3125 L 0.3125 0 C 0.671875 -0.015625 1.171875 -0.03125 1.453125 -0.03125 C 1.703125 -0.03125 2.21875 -0.015625 2.5625 0 L 2.5625 -0.3125 C 1.890625 -0.3125 1.78125 -0.3125 1.78125 -0.75 L 1.78125 -2.59375 C 1.78125 -3.625 2.5 -4.1875 3.125 -4.1875 C 3.765625 -4.1875 3.875 -3.65625 3.875 -3.078125 L 3.875 -0.75 C 3.875 -0.3125 3.765625 -0.3125 3.09375 -0.3125 L 3.09375 0 C 3.4375 -0.015625 3.953125 -0.03125 4.21875 -0.03125 C 4.46875 -0.03125 5 -0.015625 5.328125 0 L 5.328125 -0.3125 C 4.671875 -0.3125 4.5625 -0.3125 4.5625 -0.75 L 4.5625 -2.59375 C 4.5625 -3.625 5.265625 -4.1875 5.90625 -4.1875 C 6.53125 -4.1875 6.640625 -3.65625 6.640625 -3.078125 L 6.640625 -0.75 C 6.640625 -0.3125 6.53125 -0.3125 5.859375 -0.3125 L 5.859375 0 C 6.203125 -0.015625 6.71875 -0.03125 6.984375 -0.03125 C 7.25 -0.03125 7.765625 -0.015625 8.109375 0 L 8.109375 -0.3125 C 7.59375 -0.3125 7.34375 -0.3125 7.328125 -0.609375 L 7.328125 -2.515625 C 7.328125 -3.375 7.328125 -3.671875 7.015625 -4.03125 C 6.875 -4.203125 6.546875 -4.40625 5.96875 -4.40625 C 5.140625 -4.40625 4.6875 -3.8125 4.53125 -3.421875 C 4.390625 -4.296875 3.65625 -4.40625 3.203125 -4.40625 C 2.46875 -4.40625 2 -3.984375 1.71875 -3.359375 L 1.71875 -4.40625 L 0.3125 -4.296875 L 0.3125 -3.984375 C 1.015625 -3.984375 1.09375 -3.921875 1.09375 -3.421875 Z M 1.09375 -3.421875 "
           style="stroke:none;" />
      </symbol>
      <symbol
         id="glyph0-19"
         overflow="visible">
        <path
           id="path1230"
           d="M 1.71875 -3.765625 L 1.71875 -6.921875 L 0.28125 -6.8125 L 0.28125 -6.5 C 0.984375 -6.5 1.0625 -6.4375 1.0625 -5.9375 L 1.0625 0 L 1.3125 0 C 1.3125 -0.015625 1.390625 -0.15625 1.671875 -0.625 C 1.8125 -0.390625 2.234375 0.109375 2.96875 0.109375 C 4.15625 0.109375 5.1875 -0.875 5.1875 -2.15625 C 5.1875 -3.421875 4.21875 -4.40625 3.078125 -4.40625 C 2.296875 -4.40625 1.875 -3.9375 1.71875 -3.765625 Z M 1.75 -1.140625 L 1.75 -3.1875 C 1.75 -3.375 1.75 -3.390625 1.859375 -3.546875 C 2.25 -4.109375 2.796875 -4.1875 3.03125 -4.1875 C 3.484375 -4.1875 3.84375 -3.921875 4.078125 -3.546875 C 4.34375 -3.140625 4.359375 -2.578125 4.359375 -2.15625 C 4.359375 -1.796875 4.34375 -1.203125 4.0625 -0.75 C 3.84375 -0.4375 3.46875 -0.109375 2.9375 -0.109375 C 2.484375 -0.109375 2.125 -0.34375 1.890625 -0.71875 C 1.75 -0.921875 1.75 -0.953125 1.75 -1.140625 Z M 1.75 -1.140625 "
           style="stroke:none;" />
      </symbol>
      <symbol
         id="glyph0-20"
         overflow="visible">
        <path
           id="path1233"
           d="M 6.640625 -6.75 L 0.546875 -6.75 L 0.359375 -4.5 L 0.609375 -4.5 C 0.75 -6.109375 0.890625 -6.4375 2.40625 -6.4375 C 2.578125 -6.4375 2.84375 -6.4375 2.9375 -6.421875 C 3.15625 -6.375 3.15625 -6.265625 3.15625 -6.046875 L 3.15625 -0.78125 C 3.15625 -0.453125 3.15625 -0.3125 2.109375 -0.3125 L 1.703125 -0.3125 L 1.703125 0 C 2.109375 -0.03125 3.125 -0.03125 3.59375 -0.03125 C 4.046875 -0.03125 5.078125 -0.03125 5.484375 0 L 5.484375 -0.3125 L 5.078125 -0.3125 C 4.03125 -0.3125 4.03125 -0.453125 4.03125 -0.78125 L 4.03125 -6.046875 C 4.03125 -6.234375 4.03125 -6.375 4.21875 -6.421875 C 4.328125 -6.4375 4.59375 -6.4375 4.78125 -6.4375 C 6.296875 -6.4375 6.4375 -6.109375 6.578125 -4.5 L 6.828125 -4.5 Z M 6.640625 -6.75 "
           style="stroke:none;" />
      </symbol>
      <symbol
         id="glyph0-21"
         overflow="visible">
        <path
           id="path1236"
           d="M 2.078125 -1.9375 C 2.296875 -1.890625 3.109375 -1.734375 3.109375 -1.015625 C 3.109375 -0.515625 2.765625 -0.109375 1.984375 -0.109375 C 1.140625 -0.109375 0.78125 -0.671875 0.59375 -1.53125 C 0.5625 -1.65625 0.5625 -1.6875 0.453125 -1.6875 C 0.328125 -1.6875 0.328125 -1.625 0.328125 -1.453125 L 0.328125 -0.125 C 0.328125 0.046875 0.328125 0.109375 0.4375 0.109375 C 0.484375 0.109375 0.5 0.09375 0.6875 -0.09375 C 0.703125 -0.109375 0.703125 -0.125 0.890625 -0.3125 C 1.328125 0.09375 1.78125 0.109375 1.984375 0.109375 C 3.125 0.109375 3.59375 -0.5625 3.59375 -1.28125 C 3.59375 -1.796875 3.296875 -2.109375 3.171875 -2.21875 C 2.84375 -2.546875 2.453125 -2.625 2.03125 -2.703125 C 1.46875 -2.8125 0.8125 -2.9375 0.8125 -3.515625 C 0.8125 -3.875 1.0625 -4.28125 1.921875 -4.28125 C 3.015625 -4.28125 3.078125 -3.375 3.09375 -3.078125 C 3.09375 -2.984375 3.1875 -2.984375 3.203125 -2.984375 C 3.34375 -2.984375 3.34375 -3.03125 3.34375 -3.21875 L 3.34375 -4.234375 C 3.34375 -4.390625 3.34375 -4.46875 3.234375 -4.46875 C 3.1875 -4.46875 3.15625 -4.46875 3.03125 -4.34375 C 3 -4.3125 2.90625 -4.21875 2.859375 -4.1875 C 2.484375 -4.46875 2.078125 -4.46875 1.921875 -4.46875 C 0.703125 -4.46875 0.328125 -3.796875 0.328125 -3.234375 C 0.328125 -2.890625 0.484375 -2.609375 0.75 -2.390625 C 1.078125 -2.140625 1.359375 -2.078125 2.078125 -1.9375 Z M 2.078125 -1.9375 "
           style="stroke:none;" />
      </symbol>
      <symbol
         id="glyph0-22"
         overflow="visible">
        <path
           id="path1239"
           d="M 4.140625 -3.3125 C 4.234375 -3.546875 4.40625 -3.984375 5.0625 -3.984375 L 5.0625 -4.296875 C 4.828125 -4.28125 4.546875 -4.265625 4.3125 -4.265625 C 4.078125 -4.265625 3.625 -4.28125 3.453125 -4.296875 L 3.453125 -3.984375 C 3.8125 -3.984375 3.921875 -3.75 3.921875 -3.5625 C 3.921875 -3.46875 3.90625 -3.421875 3.875 -3.3125 L 2.84375 -0.78125 L 1.734375 -3.5625 C 1.671875 -3.6875 1.671875 -3.703125 1.671875 -3.734375 C 1.671875 -3.984375 2.0625 -3.984375 2.25 -3.984375 L 2.25 -4.296875 C 1.9375 -4.28125 1.390625 -4.265625 1.15625 -4.265625 C 0.890625 -4.265625 0.484375 -4.28125 0.1875 -4.296875 L 0.1875 -3.984375 C 0.8125 -3.984375 0.859375 -3.921875 0.984375 -3.625 L 2.421875 -0.078125 C 2.484375 0.0625 2.5 0.109375 2.625 0.109375 C 2.765625 0.109375 2.796875 0.015625 2.84375 -0.078125 Z M 4.140625 -3.3125 "
           style="stroke:none;" />
      </symbol>
    </g>
  </defs>
  <g
     id="surface6839">
    <path
       id="path1246"
       transform="matrix(0.1,0,0,-0.1,0,96.94)"
       d="M 1825.625 424.673438 L 1825.625 33.501563 L 2494.609375 33.501563 L 2494.609375 815.845313 L 1825.625 815.845313 Z M 1825.625 424.673438 "
       style="fill:none;stroke-width:11.3366;stroke-linecap:butt;stroke-linejoin:miter;stroke:rgb(0%,0%,0%);stroke-opacity:1;stroke-miterlimit:10;" />
    <path
       id="path1248"
       transform="matrix(0.1,0,0,-0.1,0,96.94)"
       d="M 2500.273438 708.15 L 2727.070312 708.15 L 2727.070312 934.907813 "
       style="fill:none;stroke-width:11.3366;stroke-linecap:butt;stroke-linejoin:miter;stroke:rgb(0%,0%,0%);stroke-opacity:1;stroke-miterlimit:10;" />
    <path
       id="path1250"
       transform="matrix(0.1,0,0,-0.1,0,96.94)"
       d="M 2613.671875 934.907813 L 2727.070312 821.509375 L 2840.46875 934.907813 "
       style="fill:none;stroke-width:11.3366;stroke-linecap:butt;stroke-linejoin:miter;stroke:rgb(0%,0%,0%);stroke-opacity:1;stroke-miterlimit:10;" />
    <path
       id="path1252"
       transform="matrix(0.1,0,0,-0.1,0,96.94)"
       d="M 2500.273438 141.196875 L 2727.070312 141.196875 L 2727.070312 367.99375 "
       style="fill:none;stroke-width:11.3366;stroke-linecap:butt;stroke-linejoin:miter;stroke:rgb(0%,0%,0%);stroke-opacity:1;stroke-miterlimit:10;" />
    <path
       id="path1254"
       transform="matrix(0.1,0,0,-0.1,0,96.94)"
       d="M 2613.671875 367.99375 L 2727.070312 254.595313 L 2840.46875 367.99375 "
       style="fill:none;stroke-width:11.3366;stroke-linecap:butt;stroke-linejoin:miter;stroke:rgb(0%,0%,0%);stroke-opacity:1;stroke-miterlimit:10;" />
    <g
       id="g1258"
       style="fill:rgb(0%,0%,0%);fill-opacity:1;">
      <use
         id="use1256"
         y="51.3232"
         x="200.653"
         xlink:href="#glyph0-1" />
    </g>
    <g
       id="g1262"
       style="fill:rgb(0%,0%,0%);fill-opacity:1;">
      <use
         id="use1260"
         y="51.3232"
         x="208.092998"
         xlink:href="#glyph0-2" />
    </g>
    <g
       id="g1266"
       style="fill:rgb(0%,0%,0%);fill-opacity:1;">
      <use
         id="use1264"
         y="51.3232"
         x="213.61301"
         xlink:href="#glyph0-3" />
    </g>
    <g
       id="g1272"
       style="fill:rgb(0%,0%,0%);fill-opacity:1;">
      <use
         id="use1268"
         y="51.3232"
         x="218.652997"
         xlink:href="#glyph0-4" />
      <use
         id="use1270"
         y="51.3232"
         x="221.412648"
         xlink:href="#glyph0-5" />
    </g>
    <g
       id="g1276"
       style="fill:rgb(0%,0%,0%);fill-opacity:1;">
      <use
         id="use1274"
         y="51.3232"
         x="226.452659"
         xlink:href="#glyph0-6" />
    </g>
    <g
       id="g1280"
       style="fill:rgb(0%,0%,0%);fill-opacity:1;">
      <use
         id="use1278"
         y="63.622"
         x="196.69284"
         xlink:href="#glyph0-7" />
    </g>
    <g
       id="g1284"
       style="fill:rgb(0%,0%,0%);fill-opacity:1;">
      <use
         id="use1282"
         y="63.622"
         x="203.53284"
         xlink:href="#glyph0-8" />
    </g>
    <g
       id="g1288"
       style="fill:rgb(0%,0%,0%);fill-opacity:1;">
      <use
         id="use1286"
         y="63.622"
         x="207.492832"
         xlink:href="#glyph0-9" />
    </g>
    <g
       id="g1292"
       style="fill:rgb(0%,0%,0%);fill-opacity:1;">
      <use
         id="use1290"
         y="63.622"
         x="211.932822"
         xlink:href="#glyph0-10" />
    </g>
    <g
       id="g1296"
       style="fill:rgb(0%,0%,0%);fill-opacity:1;">
      <use
         id="use1294"
         y="63.622"
         x="216.372835"
         xlink:href="#glyph0-5" />
    </g>
    <g
       id="g1300"
       style="fill:rgb(0%,0%,0%);fill-opacity:1;">
      <use
         id="use1298"
         y="63.622"
         x="221.652984"
         xlink:href="#glyph0-11" />
    </g>
    <g
       id="g1304"
       style="fill:rgb(0%,0%,0%);fill-opacity:1;">
      <use
         id="use1302"
         y="63.622"
         x="227.172972"
         xlink:href="#glyph0-9" />
    </g>
    <g
       id="g1308"
       style="fill:rgb(0%,0%,0%);fill-opacity:1;">
      <use
         id="use1306"
         y="63.622"
         x="231.612985"
         xlink:href="#glyph0-8" />
    </g>
    <path
       id="path1310"
       transform="matrix(0.1,0,0,-0.1,0,96.94)"
       d="M 691.796875 424.673438 L 691.796875 33.501563 L 1360.742188 33.501563 L 1360.742188 815.845313 L 691.796875 815.845313 Z M 691.796875 424.673438 "
       style="fill:none;stroke-width:11.3366;stroke-linecap:butt;stroke-linejoin:miter;stroke:rgb(0%,0%,0%);stroke-opacity:1;stroke-miterlimit:10;" />
    <g
       id="g1314"
       style="fill:rgb(0%,0%,0%);fill-opacity:1;">
      <use
         id="use1312"
         y="51.3232"
         x="87.7473"
         xlink:href="#glyph0-12" />
    </g>
    <g
       id="g1320"
       style="fill:rgb(0%,0%,0%);fill-opacity:1;">
      <use
         id="use1316"
         y="51.3232"
         x="95.307297"
         xlink:href="#glyph0-13" />
      <use
         id="use1318"
         y="51.3232"
         x="98.066948"
         xlink:href="#glyph0-6" />
    </g>
    <g
       id="g1326"
       style="fill:rgb(0%,0%,0%);fill-opacity:1;">
      <use
         id="use1322"
         y="51.3232"
         x="103.106947"
         xlink:href="#glyph0-13" />
      <use
         id="use1324"
         y="51.3232"
         x="105.866598"
         xlink:href="#glyph0-14" />
    </g>
    <g
       id="g1330"
       style="fill:rgb(0%,0%,0%);fill-opacity:1;">
      <use
         id="use1328"
         y="51.3232"
         x="109.706602"
         xlink:href="#glyph0-3" />
    </g>
    <g
       id="g1334"
       style="fill:rgb(0%,0%,0%);fill-opacity:1;">
      <use
         id="use1332"
         y="51.3232"
         x="114.746601"
         xlink:href="#glyph0-4" />
    </g>
    <g
       id="g1338"
       style="fill:rgb(0%,0%,0%);fill-opacity:1;">
      <use
         id="use1336"
         y="63.622"
         x="83.30746"
         xlink:href="#glyph0-7" />
    </g>
    <g
       id="g1342"
       style="fill:rgb(0%,0%,0%);fill-opacity:1;">
      <use
         id="use1340"
         y="63.622"
         x="90.147454"
         xlink:href="#glyph0-8" />
    </g>
    <g
       id="g1346"
       style="fill:rgb(0%,0%,0%);fill-opacity:1;">
      <use
         id="use1344"
         y="63.622"
         x="94.107458"
         xlink:href="#glyph0-9" />
    </g>
    <g
       id="g1350"
       style="fill:rgb(0%,0%,0%);fill-opacity:1;">
      <use
         id="use1348"
         y="63.622"
         x="98.547454"
         xlink:href="#glyph0-10" />
    </g>
    <g
       id="g1354"
       style="fill:rgb(0%,0%,0%);fill-opacity:1;">
      <use
         id="use1352"
         y="63.622"
         x="102.987455"
         xlink:href="#glyph0-5" />
    </g>
    <g
       id="g1358"
       style="fill:rgb(0%,0%,0%);fill-opacity:1;">
      <use
         id="use1356"
         y="63.622"
         x="108.267616"
         xlink:href="#glyph0-11" />
    </g>
    <g
       id="g1362"
       style="fill:rgb(0%,0%,0%);fill-opacity:1;">
      <use
         id="use1360"
         y="63.622"
         x="113.787616"
         xlink:href="#glyph0-9" />
    </g>
    <g
       id="g1366"
       style="fill:rgb(0%,0%,0%);fill-opacity:1;">
      <use
         id="use1364"
         y="63.622"
         x="118.227617"
         xlink:href="#glyph0-8" />
    </g>
    <path
       id="path1368"
       transform="matrix(0.1,0,0,-0.1,0,96.94)"
       d="M 1485.507812 594.751563 L 1485.507812 487.017188 L 1700.9375 487.017188 L 1700.9375 702.446875 L 1485.507812 702.446875 Z M 1485.507812 594.751563 "
       style="fill:none;stroke-width:11.3366;stroke-linecap:butt;stroke-linejoin:miter;stroke:rgb(0%,0%,0%);stroke-opacity:1;stroke-miterlimit:10;" />
    <g
       id="g1372"
       style="fill:rgb(0%,0%,0%);fill-opacity:1;">
      <use
         id="use1370"
         y="40.8248"
         x="152.36"
         xlink:href="#glyph0-15" />
    </g>
    <g
       id="g1376"
       style="fill:rgb(0%,0%,0%);fill-opacity:1;">
      <use
         id="use1374"
         y="40.8248"
         x="159.679991"
         xlink:href="#glyph0-16" />
    </g>
    <path
       id="path1378"
       transform="matrix(0.1,0,0,-0.1,0,96.94)"
       d="M 1485.507812 254.595313 L 1485.507812 146.860938 L 1700.9375 146.860938 L 1700.9375 362.290625 L 1485.507812 362.290625 Z M 1485.507812 254.595313 "
       style="fill:none;stroke-width:11.3366;stroke-linecap:butt;stroke-linejoin:miter;stroke:rgb(0%,0%,0%);stroke-opacity:1;stroke-miterlimit:10;" />
    <g
       id="g1382"
       style="fill:rgb(0%,0%,0%);fill-opacity:1;">
      <use
         id="use1380"
         y="74.8404"
         x="152.36"
         xlink:href="#glyph0-15" />
    </g>
    <g
       id="g1386"
       style="fill:rgb(0%,0%,0%);fill-opacity:1;">
      <use
         id="use1384"
         y="74.8404"
         x="159.679991"
         xlink:href="#glyph0-16" />
    </g>
    <path
       id="path1388"
       transform="matrix(0.1,0,0,-0.1,0,96.94)"
       d="M 1366.445312 594.751563 L 1479.804688 594.751563 "
       style="fill:none;stroke-width:11.3366;stroke-linecap:butt;stroke-linejoin:miter;stroke:rgb(0%,0%,0%);stroke-opacity:1;stroke-miterlimit:10;" />
    <path
       id="path1390"
       transform="matrix(0.1,0,0,-0.1,0,96.94)"
       d="M 1706.601562 594.751563 L 1819.960938 594.751563 "
       style="fill:none;stroke-width:11.3366;stroke-linecap:butt;stroke-linejoin:miter;stroke:rgb(0%,0%,0%);stroke-opacity:1;stroke-miterlimit:10;" />
    <path
       id="path1392"
       transform="matrix(0.1,0,0,-0.1,0,96.94)"
       d="M 1366.445312 254.595313 L 1479.804688 254.595313 "
       style="fill:none;stroke-width:11.3366;stroke-linecap:butt;stroke-linejoin:miter;stroke:rgb(0%,0%,0%);stroke-opacity:1;stroke-miterlimit:10;" />
    <path
       id="path1394"
       transform="matrix(0.1,0,0,-0.1,0,96.94)"
       d="M 1706.601562 254.595313 L 1819.960938 254.595313 "
       style="fill:none;stroke-width:11.3366;stroke-linecap:butt;stroke-linejoin:miter;stroke:rgb(0%,0%,0%);stroke-opacity:1;stroke-miterlimit:10;" />
    <path
       id="path1396"
       transform="matrix(0.1,0,0,-0.1,0,96.94)"
       d="M 4887.070312 424.673438 L 4887.070312 33.501563 L 5556.054688 33.501563 L 5556.054688 815.845313 L 4887.070312 815.845313 Z M 4887.070312 424.673438 "
       style="fill:none;stroke-width:11.3366;stroke-linecap:butt;stroke-linejoin:miter;stroke:rgb(0%,0%,0%);stroke-opacity:1;stroke-miterlimit:10;" />
    <g
       id="g1400"
       style="fill:rgb(0%,0%,0%);fill-opacity:1;">
      <use
         id="use1398"
         y="51.3232"
         x="507.275"
         xlink:href="#glyph0-12" />
    </g>
    <g
       id="g1406"
       style="fill:rgb(0%,0%,0%);fill-opacity:1;">
      <use
         id="use1402"
         y="51.3232"
         x="514.83499"
         xlink:href="#glyph0-13" />
      <use
         id="use1404"
         y="51.3232"
         x="517.594642"
         xlink:href="#glyph0-6" />
    </g>
    <g
       id="g1412"
       style="fill:rgb(0%,0%,0%);fill-opacity:1;">
      <use
         id="use1408"
         y="51.3232"
         x="522.634653"
         xlink:href="#glyph0-13" />
      <use
         id="use1410"
         y="51.3232"
         x="525.394304"
         xlink:href="#glyph0-14" />
    </g>
    <g
       id="g1416"
       style="fill:rgb(0%,0%,0%);fill-opacity:1;">
      <use
         id="use1414"
         y="51.3232"
         x="529.234272"
         xlink:href="#glyph0-3" />
    </g>
    <g
       id="g1420"
       style="fill:rgb(0%,0%,0%);fill-opacity:1;">
      <use
         id="use1418"
         y="51.3232"
         x="534.274283"
         xlink:href="#glyph0-4" />
    </g>
    <g
       id="g1424"
       style="fill:rgb(0%,0%,0%);fill-opacity:1;">
      <use
         id="use1422"
         y="63.622"
         x="501.03516"
         xlink:href="#glyph0-17" />
    </g>
    <g
       id="g1428"
       style="fill:rgb(0%,0%,0%);fill-opacity:1;">
      <use
         id="use1426"
         y="63.622"
         x="508.235169"
         xlink:href="#glyph0-5" />
    </g>
    <g
       id="g1432"
       style="fill:rgb(0%,0%,0%);fill-opacity:1;">
      <use
         id="use1430"
         y="63.622"
         x="513.27518"
         xlink:href="#glyph0-18" />
    </g>
    <g
       id="g1436"
       style="fill:rgb(0%,0%,0%);fill-opacity:1;">
      <use
         id="use1434"
         y="63.622"
         x="521.315269"
         xlink:href="#glyph0-19" />
    </g>
    <g
       id="g1442"
       style="fill:rgb(0%,0%,0%);fill-opacity:1;">
      <use
         id="use1438"
         y="63.622"
         x="526.835306"
         xlink:href="#glyph0-13" />
      <use
         id="use1440"
         y="63.622"
         x="529.594957"
         xlink:href="#glyph0-2" />
    </g>
    <g
       id="g1446"
       style="fill:rgb(0%,0%,0%);fill-opacity:1;">
      <use
         id="use1444"
         y="63.622"
         x="535.114994"
         xlink:href="#glyph0-9" />
    </g>
    <g
       id="g1450"
       style="fill:rgb(0%,0%,0%);fill-opacity:1;">
      <use
         id="use1448"
         y="63.622"
         x="539.555008"
         xlink:href="#glyph0-8" />
    </g>
    <path
       id="path1452"
       transform="matrix(0.1,0,0,-0.1,0,96.94)"
       d="M 3753.203125 424.673438 L 3753.203125 33.501563 L 4422.1875 33.501563 L 4422.1875 815.845313 L 3753.203125 815.845313 Z M 3753.203125 424.673438 "
       style="fill:none;stroke-width:11.3366;stroke-linecap:butt;stroke-linejoin:miter;stroke:rgb(0%,0%,0%);stroke-opacity:1;stroke-miterlimit:10;" />
    <g
       id="g1456"
       style="fill:rgb(0%,0%,0%);fill-opacity:1;">
      <use
         id="use1454"
         y="51.3232"
         x="393.409"
         xlink:href="#glyph0-1" />
    </g>
    <g
       id="g1460"
       style="fill:rgb(0%,0%,0%);fill-opacity:1;">
      <use
         id="use1458"
         y="51.3232"
         x="400.848998"
         xlink:href="#glyph0-2" />
    </g>
    <g
       id="g1464"
       style="fill:rgb(0%,0%,0%);fill-opacity:1;">
      <use
         id="use1462"
         y="51.3232"
         x="406.36901"
         xlink:href="#glyph0-3" />
    </g>
    <g
       id="g1470"
       style="fill:rgb(0%,0%,0%);fill-opacity:1;">
      <use
         id="use1466"
         y="51.3232"
         x="411.409021"
         xlink:href="#glyph0-4" />
      <use
         id="use1468"
         y="51.3232"
         x="414.168672"
         xlink:href="#glyph0-5" />
    </g>
    <g
       id="g1474"
       style="fill:rgb(0%,0%,0%);fill-opacity:1;">
      <use
         id="use1472"
         y="51.3232"
         x="419.208684"
         xlink:href="#glyph0-6" />
    </g>
    <g
       id="g1478"
       style="fill:rgb(0%,0%,0%);fill-opacity:1;">
      <use
         id="use1476"
         y="63.622"
         x="387.64923"
         xlink:href="#glyph0-17" />
    </g>
    <g
       id="g1482"
       style="fill:rgb(0%,0%,0%);fill-opacity:1;">
      <use
         id="use1480"
         y="63.622"
         x="394.849239"
         xlink:href="#glyph0-5" />
    </g>
    <g
       id="g1486"
       style="fill:rgb(0%,0%,0%);fill-opacity:1;">
      <use
         id="use1484"
         y="63.622"
         x="399.889226"
         xlink:href="#glyph0-18" />
    </g>
    <g
       id="g1490"
       style="fill:rgb(0%,0%,0%);fill-opacity:1;">
      <use
         id="use1488"
         y="63.622"
         x="407.929315"
         xlink:href="#glyph0-19" />
    </g>
    <g
       id="g1496"
       style="fill:rgb(0%,0%,0%);fill-opacity:1;">
      <use
         id="use1492"
         y="63.622"
         x="413.449352"
         xlink:href="#glyph0-13" />
      <use
         id="use1494"
         y="63.622"
         x="416.209003"
         xlink:href="#glyph0-2" />
    </g>
    <g
       id="g1500"
       style="fill:rgb(0%,0%,0%);fill-opacity:1;">
      <use
         id="use1498"
         y="63.622"
         x="421.72904"
         xlink:href="#glyph0-9" />
    </g>
    <g
       id="g1504"
       style="fill:rgb(0%,0%,0%);fill-opacity:1;">
      <use
         id="use1502"
         y="63.622"
         x="426.169053"
         xlink:href="#glyph0-8" />
    </g>
    <path
       id="path1506"
       transform="matrix(0.1,0,0,-0.1,0,96.94)"
       d="M 4546.914062 594.751563 L 4546.914062 487.017188 L 4762.34375 487.017188 L 4762.34375 702.446875 L 4546.914062 702.446875 Z M 4546.914062 594.751563 "
       style="fill:none;stroke-width:11.3366;stroke-linecap:butt;stroke-linejoin:miter;stroke:rgb(0%,0%,0%);stroke-opacity:1;stroke-miterlimit:10;" />
    <g
       id="g1510"
       style="fill:rgb(0%,0%,0%);fill-opacity:1;">
      <use
         id="use1508"
         y="40.8248"
         x="458.502"
         xlink:href="#glyph0-15" />
    </g>
    <g
       id="g1514"
       style="fill:rgb(0%,0%,0%);fill-opacity:1;">
      <use
         id="use1512"
         y="40.8248"
         x="465.822003"
         xlink:href="#glyph0-16" />
    </g>
    <path
       id="path1516"
       transform="matrix(0.1,0,0,-0.1,0,96.94)"
       d="M 4546.914062 254.595313 L 4546.914062 146.860938 L 4762.34375 146.860938 L 4762.34375 362.290625 L 4546.914062 362.290625 Z M 4546.914062 254.595313 "
       style="fill:none;stroke-width:11.3366;stroke-linecap:butt;stroke-linejoin:miter;stroke:rgb(0%,0%,0%);stroke-opacity:1;stroke-miterlimit:10;" />
    <g
       id="g1520"
       style="fill:rgb(0%,0%,0%);fill-opacity:1;">
      <use
         id="use1518"
         y="74.8404"
         x="458.502"
         xlink:href="#glyph0-15" />
    </g>
    <g
       id="g1524"
       style="fill:rgb(0%,0%,0%);fill-opacity:1;">
      <use
         id="use1522"
         y="74.8404"
         x="465.822003"
         xlink:href="#glyph0-16" />
    </g>
    <path
       id="path1526"
       transform="matrix(0.1,0,0,-0.1,0,96.94)"
       d="M 4427.851562 594.751563 L 4541.210938 594.751563 "
       style="fill:none;stroke-width:11.3366;stroke-linecap:butt;stroke-linejoin:miter;stroke:rgb(0%,0%,0%);stroke-opacity:1;stroke-miterlimit:10;" />
    <path
       id="path1528"
       transform="matrix(0.1,0,0,-0.1,0,96.94)"
       d="M 4768.007812 594.751563 L 4881.40625 594.751563 "
       style="fill:none;stroke-width:11.3366;stroke-linecap:butt;stroke-linejoin:miter;stroke:rgb(0%,0%,0%);stroke-opacity:1;stroke-miterlimit:10;" />
    <path
       id="path1530"
       transform="matrix(0.1,0,0,-0.1,0,96.94)"
       d="M 4427.851562 254.595313 L 4541.210938 254.595313 "
       style="fill:none;stroke-width:11.3366;stroke-linecap:butt;stroke-linejoin:miter;stroke:rgb(0%,0%,0%);stroke-opacity:1;stroke-miterlimit:10;" />
    <path
       id="path1532"
       transform="matrix(0.1,0,0,-0.1,0,96.94)"
       d="M 4768.007812 254.595313 L 4881.40625 254.595313 "
       style="fill:none;stroke-width:11.3366;stroke-linecap:butt;stroke-linejoin:miter;stroke:rgb(0%,0%,0%);stroke-opacity:1;stroke-miterlimit:10;" />
    <path
       id="path1534"
       transform="matrix(0.1,0,0,-0.1,0,96.94)"
       d="M 3520.742188 934.907813 L 3520.742188 708.15 L 3747.539062 708.15 "
       style="fill:none;stroke-width:11.3366;stroke-linecap:butt;stroke-linejoin:miter;stroke:rgb(0%,0%,0%);stroke-opacity:1;stroke-miterlimit:10;" />
    <path
       id="path1536"
       transform="matrix(0.1,0,0,-0.1,0,96.94)"
       d="M 3520.742188 367.99375 L 3520.742188 141.196875 L 3747.539062 141.196875 "
       style="fill:none;stroke-width:11.3366;stroke-linecap:butt;stroke-linejoin:miter;stroke:rgb(0%,0%,0%);stroke-opacity:1;stroke-miterlimit:10;" />
    <path
       id="path1538"
       transform="matrix(0.1,0,0,-0.1,0,96.94)"
       d="M 3407.382812 934.907813 L 3520.742188 821.509375 L 3634.140625 934.907813 "
       style="fill:none;stroke-width:11.3366;stroke-linecap:butt;stroke-linejoin:miter;stroke:rgb(0%,0%,0%);stroke-opacity:1;stroke-miterlimit:10;" />
    <path
       id="path1540"
       transform="matrix(0.1,0,0,-0.1,0,96.94)"
       d="M 3407.382812 367.99375 L 3520.742188 254.595313 L 3634.140625 367.99375 "
       style="fill:none;stroke-width:11.3366;stroke-linecap:butt;stroke-linejoin:miter;stroke:rgb(0%,0%,0%);stroke-opacity:1;stroke-miterlimit:10;" />
    <path
       id="path1542"
       d="M 62.578125 40.480469 L 68.613281 37.464844 L 62.578125 34.449219 L 62.578125 37.464844 "
       style=" stroke:none;fill-rule:nonzero;fill:rgb(0%,0%,0%);fill-opacity:1;" />
    <path
       id="path1544"
       transform="matrix(0.1,0,0,-0.1,0,96.94)"
       d="M 459.335938 594.751563 L 625.78125 594.751563 "
       style="fill:none;stroke-width:11.3366;stroke-linecap:butt;stroke-linejoin:miter;stroke:rgb(0%,0%,0%);stroke-opacity:1;stroke-miterlimit:10;" />
    <path
       id="path1546"
       d="M 62.578125 74.496094 L 68.613281 71.480469 L 62.578125 68.464844 L 62.578125 71.480469 "
       style=" stroke:none;fill-rule:nonzero;fill:rgb(0%,0%,0%);fill-opacity:1;" />
    <path
       id="path1548"
       transform="matrix(0.1,0,0,-0.1,0,96.94)"
       d="M 459.335938 254.595313 L 625.78125 254.595313 "
       style="fill:none;stroke-width:11.3366;stroke-linecap:butt;stroke-linejoin:miter;stroke:rgb(0%,0%,0%);stroke-opacity:1;stroke-miterlimit:10;" />
    <path
       id="path1550"
       d="M 572.8125 40.480469 L 578.847656 37.464844 L 572.8125 34.449219 L 572.8125 37.464844 "
       style=" stroke:none;fill-rule:nonzero;fill:rgb(0%,0%,0%);fill-opacity:1;" />
    <path
       id="path1552"
       transform="matrix(0.1,0,0,-0.1,0,96.94)"
       d="M 5561.71875 594.751563 L 5728.125 594.751563 "
       style="fill:none;stroke-width:11.3366;stroke-linecap:butt;stroke-linejoin:miter;stroke:rgb(0%,0%,0%);stroke-opacity:1;stroke-miterlimit:10;" />
    <path
       id="path1554"
       d="M 572.8125 74.496094 L 578.847656 71.480469 L 572.8125 68.464844 L 572.8125 71.480469 "
       style=" stroke:none;fill-rule:nonzero;fill:rgb(0%,0%,0%);fill-opacity:1;" />
    <path
       id="path1556"
       transform="matrix(0.1,0,0,-0.1,0,96.94)"
       d="M 5561.71875 254.595313 L 5728.125 254.595313 "
       style="fill:none;stroke-width:11.3366;stroke-linecap:butt;stroke-linejoin:miter;stroke:rgb(0%,0%,0%);stroke-opacity:1;stroke-miterlimit:10;" />
    <path
       id="path1558"
       d="M 323.363281 6.464844 L 329.398438 3.449219 L 323.363281 0.433594 L 323.363281 3.449219 "
       style=" stroke:none;fill-rule:nonzero;fill:rgb(0%,0%,0%);fill-opacity:1;" />
    <path
       id="path1560"
       transform="matrix(0.1,0,0,-0.1,0,96.94)"
       d="M 2953.828125 934.907813 L 3233.632812 934.907813 "
       style="fill:none;stroke-width:11.3366;stroke-linecap:butt;stroke-linejoin:miter;stroke:rgb(0%,0%,0%);stroke-opacity:1;stroke-miterlimit:10;" />
    <path
       id="path1562"
       d="M 323.363281 63.160156 L 329.398438 60.140625 L 323.363281 57.125 L 323.363281 60.140625 "
       style=" stroke:none;fill-rule:nonzero;fill:rgb(0%,0%,0%);fill-opacity:1;" />
    <path
       id="path1564"
       transform="matrix(0.1,0,0,-0.1,0,96.94)"
       d="M 2953.828125 367.99375 L 3233.632812 367.99375 "
       style="fill:none;stroke-width:11.3366;stroke-linecap:butt;stroke-linejoin:miter;stroke:rgb(0%,0%,0%);stroke-opacity:1;stroke-miterlimit:10;" />
    <path
       id="path1566"
       d="M 327.265625 21.1875 L 329.398438 14.789062 L 322.996094 16.921875 L 325.132812 19.054688 "
       style=" stroke:none;fill-rule:nonzero;fill:rgb(0%,0%,0%);fill-opacity:1;" />
    <path
       id="path1568"
       transform="matrix(0.1,0,0,-0.1,0,96.94)"
       d="M 2953.828125 481.353125 L 3251.328125 778.853125 "
       style="fill:none;stroke-width:11.3366;stroke-linecap:butt;stroke-linejoin:miter;stroke:rgb(0%,0%,0%);stroke-opacity:1;stroke-miterlimit:10;" />
    <path
       id="path1570"
       d="M 322.996094 46.667969 L 329.398438 48.804688 L 327.265625 42.402344 L 325.132812 44.535156 "
       style=" stroke:none;fill-rule:nonzero;fill:rgb(0%,0%,0%);fill-opacity:1;" />
    <path
       id="path1572"
       transform="matrix(0.1,0,0,-0.1,0,96.94)"
       d="M 2953.828125 821.509375 L 3251.328125 524.048438 "
       style="fill:none;stroke-width:11.3366;stroke-linecap:butt;stroke-linejoin:miter;stroke:rgb(0%,0%,0%);stroke-opacity:1;stroke-miterlimit:10;" />
    <g
       id="g1576"
       style="fill:rgb(0%,0%,0%);fill-opacity:1;">
      <use
         id="use1574"
         y="52.1634"
         x="3.45742"
         xlink:href="#glyph0-20" />
    </g>
    <g
       id="g1580"
       style="fill:rgb(0%,0%,0%);fill-opacity:1;">
      <use
         id="use1578"
         y="52.1634"
         x="9.817576"
         xlink:href="#glyph0-8" />
    </g>
    <g
       id="g1584"
       style="fill:rgb(0%,0%,0%);fill-opacity:1;">
      <use
         id="use1582"
         y="52.1634"
         x="13.777576"
         xlink:href="#glyph0-3" />
    </g>
    <g
       id="g1588"
       style="fill:rgb(0%,0%,0%);fill-opacity:1;">
      <use
         id="use1586"
         y="52.1634"
         x="18.817575"
         xlink:href="#glyph0-2" />
    </g>
    <g
       id="g1592"
       style="fill:rgb(0%,0%,0%);fill-opacity:1;">
      <use
         id="use1590"
         y="52.1634"
         x="24.337575"
         xlink:href="#glyph0-21" />
    </g>
    <g
       id="g1596"
       style="fill:rgb(0%,0%,0%);fill-opacity:1;">
      <use
         id="use1594"
         y="52.1634"
         x="28.297575"
         xlink:href="#glyph0-18" />
    </g>
    <g
       id="g1602"
       style="fill:rgb(0%,0%,0%);fill-opacity:1;">
      <use
         id="use1598"
         y="52.1634"
         x="36.577573"
         xlink:href="#glyph0-13" />
      <use
         id="use1600"
         y="52.1634"
         x="39.337224"
         xlink:href="#glyph0-14" />
    </g>
    <g
       id="g1606"
       style="fill:rgb(0%,0%,0%);fill-opacity:1;">
      <use
         id="use1604"
         y="63.5021"
         x="12.57734"
         xlink:href="#glyph0-12" />
    </g>
    <g
       id="g1610"
       style="fill:rgb(0%,0%,0%);fill-opacity:1;">
      <use
         id="use1608"
         y="63.5021"
         x="20.13734"
         xlink:href="#glyph0-3" />
    </g>
    <g
       id="g1614"
       style="fill:rgb(0%,0%,0%);fill-opacity:1;">
      <use
         id="use1612"
         y="63.5021"
         x="25.177339"
         xlink:href="#glyph0-14" />
    </g>
    <g
       id="g1618"
       style="fill:rgb(0%,0%,0%);fill-opacity:1;">
      <use
         id="use1616"
         y="63.5021"
         x="29.01734"
         xlink:href="#glyph0-3" />
    </g>
    <g
       id="g1622"
       style="fill:rgb(0%,0%,0%);fill-opacity:1;">
      <use
         id="use1620"
         y="52.1634"
         x="585.20534"
         xlink:href="#glyph0-15" />
    </g>
    <g
       id="g1626"
       style="fill:rgb(0%,0%,0%);fill-opacity:1;">
      <use
         id="use1624"
         y="52.1634"
         x="592.525343"
         xlink:href="#glyph0-9" />
    </g>
    <g
       id="g1630"
       style="fill:rgb(0%,0%,0%);fill-opacity:1;">
      <use
         id="use1628"
         y="52.1634"
         x="596.965357"
         xlink:href="#glyph0-10" />
    </g>
    <g
       id="g1634"
       style="fill:rgb(0%,0%,0%);fill-opacity:1;">
      <use
         id="use1632"
         y="52.1634"
         x="601.40537"
         xlink:href="#glyph0-9" />
    </g>
    <g
       id="g1640"
       style="fill:rgb(0%,0%,0%);fill-opacity:1;">
      <use
         id="use1636"
         y="52.1634"
         x="605.845384"
         xlink:href="#glyph0-13" />
      <use
         id="use1638"
         y="52.1634"
         x="608.605035"
         xlink:href="#glyph0-22" />
    </g>
    <g
       id="g1644"
       style="fill:rgb(0%,0%,0%);fill-opacity:1;">
      <use
         id="use1642"
         y="52.1634"
         x="613.644898"
         xlink:href="#glyph0-9" />
    </g>
    <g
       id="g1648"
       style="fill:rgb(0%,0%,0%);fill-opacity:1;">
      <use
         id="use1646"
         y="63.5021"
         x="590.84518"
         xlink:href="#glyph0-12" />
    </g>
    <g
       id="g1652"
       style="fill:rgb(0%,0%,0%);fill-opacity:1;">
      <use
         id="use1650"
         y="63.5021"
         x="598.40517"
         xlink:href="#glyph0-3" />
    </g>
    <g
       id="g1656"
       style="fill:rgb(0%,0%,0%);fill-opacity:1;">
      <use
         id="use1654"
         y="63.5021"
         x="603.445182"
         xlink:href="#glyph0-14" />
    </g>
    <g
       id="g1660"
       style="fill:rgb(0%,0%,0%);fill-opacity:1;">
      <use
         id="use1658"
         y="63.5021"
         x="607.285149"
         xlink:href="#glyph0-3" />
    </g>
  </g>
</svg>
